<?xml version="1.0" standalone="no"?>
<!DOCTYPE svg PUBLIC "-//W3C//DTD SVG 1.1//EN" "http://www.w3.org/Graphics/SVG/1.1/DTD/svg11.dtd" >
<svg xmlns="http://www.w3.org/2000/svg">
<metadata></metadata>
<defs>
<font id="robotoitalic" horiz-adv-x="1140" >
<font-face units-per-em="2048" ascent="1536" descent="-512" />
<missing-glyph horiz-adv-x="498" />
<glyph unicode="&#xfb01;" horiz-adv-x="1117" d="M86 917l22 143h166l18 115q27 185 145 279.5t305 94.5q63 0 127 -15.5t143 -43.5l-56 -157q-50 20 -106 35t-118 15q-111 0 -171.5 -52t-75.5 -156l-18 -115h211l-21 -143h-211l-137 -917h-193l137 917h-167zM689 0l159 1060h194l-159 -1060h-194z" />
<glyph horiz-adv-x="0" />
<glyph unicode="&#xd;" horiz-adv-x="498" />
<glyph horiz-adv-x="0" />
<glyph unicode="&#x9;" horiz-adv-x="0" />
<glyph unicode=" "  horiz-adv-x="498" />
<glyph unicode="&#x09;" horiz-adv-x="498" />
<glyph unicode="&#xa0;" horiz-adv-x="498" />
<glyph unicode="!" horiz-adv-x="528" d="M89 0l31 200h194l-31 -200h-194zM160 468l143 959h193l-143 -959h-193z" />
<glyph unicode="&#x22;" horiz-adv-x="718" d="M178 917l35 235l38 275h193l-37 -265l-134 -245h-95zM481 917l34 243l38 267h194l-37 -265l-134 -245h-95z" />
<glyph unicode="#" horiz-adv-x="1250" d="M51 402l21 137h257l119 341h-251l21 139h278l141 408h148l-141 -408h250l141 408h148l-141 -408h195l-21 -139h-222l-118 -341h216l-21 -137h-243l-138 -402h-149l139 402h-250l-139 -402h-148l139 402h-231zM477 539h250l119 341h-250z" />
<glyph unicode="$" horiz-adv-x="1169" d="M109 420h193q-23 -156 44 -217.5t179 -61.5q122 0 204 61.5t97 165.5q12 92 -40.5 152.5t-191.5 109.5q-189 60 -276.5 160t-63.5 266q22 168 129 268t274 120l30 215h155l-31 -217q156 -24 232.5 -137t52.5 -300h-192q17 129 -33 204.5t-161 75.5q-110 0 -179 -61.5 t-84 -164.5q-14 -98 37 -155t200 -110q192 -65 275 -161.5t60 -262.5q-24 -174 -138 -271.5t-295 -114.5l-25 -188h-154l25 187q-162 19 -257.5 126t-65.5 311z" />
<glyph unicode="%" horiz-adv-x="1468" d="M185 1077l11 75q19 130 112 212.5t228 82.5q129 0 199 -85.5t51 -209.5l-11 -75q-19 -129 -111 -211t-226 -82q-130 0 -201 85.5t-52 207.5zM290 173l863 1116l97 -66l-863 -1115zM328 1077q-11 -75 21 -124t107 -49q68 0 116 50.5t60 122.5l11 75q11 76 -21 126t-105 50 q-70 0 -118.5 -52t-59.5 -124zM756 273l11 77q19 128 111.5 211t227.5 83q129 0 199 -86t52 -208l-11 -77q-20 -129 -112 -211.5t-226 -82.5q-130 0 -201 85.5t-51 208.5zM899 273q-12 -76 20 -125t107 -49q69 0 117 51t59 123l12 77q11 75 -21.5 124.5t-104.5 49.5 q-71 0 -119.5 -52t-58.5 -122z" />
<glyph unicode="&#x26;" horiz-adv-x="1250" d="M42 384q18 124 99 211t235 178q-62 95 -88 172t-14 157q26 172 133.5 258.5t277.5 86.5q148 0 234.5 -90t68.5 -213q-16 -100 -75.5 -167.5t-174.5 -142.5l-119 -78l272 -399q51 64 84.5 140.5t47.5 162.5h173q-21 -135 -75 -242.5t-140 -194.5l153 -223h-231l-69 100 q-88 -59 -187 -90t-201 -31q-205 0 -318 114t-86 291zM235 384q-17 -114 41.5 -184t191.5 -70q69 0 141 24.5t140 70.5l-288 425l-44 -29q-99 -67 -137.5 -128t-44.5 -109zM467 1104q-7 -53 11 -108.5t61 -122.5l149 93q62 38 88.5 81.5t33.5 96.5q9 62 -31.5 107t-116.5 45 q-77 0 -130 -56t-65 -136z" />
<glyph unicode="'" horiz-adv-x="436" d="M180 932l38 260l33 235h193l-30 -219l-139 -276h-95z" />
<glyph unicode="(" horiz-adv-x="665" d="M135 570l2 9q56 403 246.5 667t379.5 357l6 -1l22 -113q-149 -105 -281.5 -336.5t-179.5 -571.5l-2 -13q-50 -354 16.5 -576.5t188.5 -339.5l-52 -106h-6q-158 91 -276.5 364t-63.5 660z" />
<glyph unicode=")" horiz-adv-x="673" d="M-117 -348q147 103 280.5 338.5t181.5 577.5l2 13q49 350 -20.5 578t-184.5 338l52 106h6q158 -91 276 -364.5t64 -659.5l-2 -9q-57 -403 -247.5 -667t-378.5 -357l-6 1z" />
<glyph unicode="*" horiz-adv-x="866" d="M120 748l71 151l218 -89l27 249h158l-48 -254l242 87l23 -153l-247 -67l121 -196l-143 -94l-106 214l-163 -206l-116 90l184 202z" />
<glyph unicode="+" horiz-adv-x="1138" d="M87 593l26 174h394l62 415h193l-62 -415h391l-26 -174h-391l-67 -450h-193l67 450h-394z" />
<glyph unicode="," horiz-adv-x="395" d="M-70 -253l116 310l24 160h193l-26 -170l-192 -300h-115z" />
<glyph unicode="-" horiz-adv-x="904" d="M165 527l22 151h578l-22 -151h-578z" />
<glyph unicode="." horiz-adv-x="537" d="M79 0l30 198h193l-30 -198h-193z" />
<glyph unicode="/" horiz-adv-x="833" d="M-81 -122l828 1549h163l-827 -1549h-164z" />
<glyph unicode="0" horiz-adv-x="1129" d="M108 504l63 419q37 249 180 386.5t352 137.5q200 0 305.5 -143t70.5 -381l-63 -419q-38 -251 -180 -388t-352 -137q-199 0 -305.5 143t-70.5 382zM295 465q-25 -160 30.5 -247.5t181.5 -87.5q119 0 203 91t107 244l75 498q23 160 -31.5 246.5t-181.5 86.5 q-118 0 -202 -90.5t-108 -242.5z" />
<glyph unicode="1" horiz-adv-x="1129" d="M300 1246l21 149l514 52l-218 -1447h-194l188 1249z" />
<glyph unicode="2" horiz-adv-x="1129" d="M74 0l18 132l522 534q141 145 195 231t67 173q14 103 -34 164.5t-152 61.5q-122 0 -201.5 -78.5t-95.5 -192.5h-185l-2 6q20 181 157.5 298.5t347.5 117.5q185 0 283 -107t75 -272q-17 -118 -91.5 -221t-229.5 -270l-418 -420l2 -6h649l-22 -151h-885z" />
<glyph unicode="3" horiz-adv-x="1129" d="M95 370l2 6h185q-16 -107 48 -176.5t184 -69.5q112 0 193 74t99 190q20 139 -32 203.5t-186 64.5h-159l5 31l13 86l5 32h159q123 0 189 65.5t84 178.5q17 112 -31 176.5t-165 64.5q-108 0 -193.5 -70.5t-100.5 -171.5h-184l-2 5q20 167 162.5 277.5t340.5 110.5 q192 0 292.5 -101t72.5 -294q-16 -105 -80.5 -187t-166.5 -126q100 -45 144 -132.5t27 -208.5q-32 -204 -170 -311.5t-339 -107.5q-175 0 -301 108.5t-95 282.5z" />
<glyph unicode="4" horiz-adv-x="1129" d="M41 329l17 109l749 989h203l-142 -947h198l-23 -151h-197l-49 -329h-192l49 329h-613zM271 480h405l100 667l-5 2l-25 -47z" />
<glyph unicode="5" horiz-adv-x="1129" d="M130 370l2 5h176q-19 -120 38.5 -182.5t166.5 -62.5q117 0 200 87.5t105 235.5q21 141 -34 223t-177 82q-109 0 -168 -35.5t-93 -105.5l-158 17l201 793h714l-25 -172h-552l-108 -410q51 34 110.5 56t131.5 23q198 2 291.5 -124t60.5 -345q-34 -223 -167 -349.5 t-355 -126.5q-175 0 -283.5 99.5t-76.5 291.5z" />
<glyph unicode="6" horiz-adv-x="1129" d="M137 541l49 328q39 261 204.5 419.5t376.5 158.5q81 0 163 -17t131 -41l-63 -148q-52 24 -112 39.5t-142 15.5q-130 0 -233.5 -116t-129.5 -289l-15 -107q68 59 154.5 91.5t181.5 32.5q176 0 268 -124t64 -323q-35 -228 -173 -355t-344 -127q-191 0 -305 151.5t-75 410.5 zM326 522q-28 -188 34.5 -290t179.5 -102q116 0 197 93t104 238q20 144 -37 223.5t-186 79.5q-89 0 -160.5 -40t-117.5 -108z" />
<glyph unicode="7" horiz-adv-x="1129" d="M208 1275l22 152h947l-23 -152q-318 -321 -450 -567t-178 -552l-23 -156h-193l23 156q50 337 204 586t427 533h-756z" />
<glyph unicode="8" horiz-adv-x="1129" d="M80 392q19 126 107.5 217.5t224.5 132.5q-102 43 -154.5 127.5t-36.5 192.5q29 194 162 289.5t329 95.5q176 0 281 -99.5t78 -285.5q-18 -116 -92.5 -200.5t-185.5 -124.5q113 -45 173 -136t43 -209q-31 -205 -172.5 -309t-342.5 -104q-203 0 -323.5 109t-90.5 304z M274 396q-19 -125 49 -195.5t193 -70.5q108 0 196 73.5t106 192.5q18 120 -46 193.5t-177 73.5q-117 0 -210.5 -75.5t-110.5 -191.5zM414 1059q-17 -112 41.5 -178t163.5 -66q91 0 166 68.5t92 175.5q16 107 -38 172t-150 65q-101 0 -180.5 -65t-94.5 -172z" />
<glyph unicode="9" horiz-adv-x="1129" d="M117 41l52 147q60 -31 120 -44.5t143 -13.5q134 0 236.5 97t129.5 272l16 114q-56 -67 -130.5 -100.5t-159.5 -33.5q-198 0 -300 128.5t-67 350.5q33 225 176.5 357t328.5 132q206 0 319 -135t76 -378l-64 -433q-38 -256 -197.5 -389t-385.5 -133q-73 0 -151.5 16 t-141.5 46zM350 958q-24 -152 26.5 -240t170.5 -88q97 0 174.5 47.5t120.5 119.5l25 165q25 167 -33.5 250.5t-188.5 83.5q-101 0 -187.5 -94.5t-107.5 -243.5z" />
<glyph unicode=":" horiz-adv-x="506" d="M79 0l30 198h193l-30 -198h-193zM207 858l30 198h193l-30 -198h-193z" />
<glyph unicode=";" horiz-adv-x="514" d="M-20 -253l116 310l24 160h193l-26 -170l-192 -300h-115zM208 858l30 198h193l-30 -198h-193z" />
<glyph unicode="&#x3c;" horiz-adv-x="1019" d="M63 476l15 106l6 40l856 371l-30 -197l-582 -229l-86 -17v-6l79 -19l515 -223l-29 -197z" />
<glyph unicode="=" horiz-adv-x="1129" d="M130 399l25 161h817l-24 -161h-818zM191 807l25 160h817l-25 -160h-817z" />
<glyph unicode="&#x3e;" horiz-adv-x="1050" d="M68 85l28 192l621 234l87 17v6l-80 19l-552 229l29 191l783 -370l-6 -39l-10 -68l-6 -39z" />
<glyph unicode="?" horiz-adv-x="954" d="M146 1100q22 157 150 252t305 95q185 0 280.5 -99t69.5 -274q-20 -132 -102 -231.5t-217 -214.5q-61 -53 -78.5 -95t-30.5 -131h-193q23 143 54.5 197.5t144.5 144.5q114 114 164.5 176t64.5 149q15 108 -31.5 162t-150.5 54q-86 0 -158 -49t-86 -142h-184zM268 0l30 204 h202l-31 -204h-201z" />
<glyph unicode="@" horiz-adv-x="1796" d="M104 468q80 415 344.5 674.5t629.5 259.5q358 0 526 -247.5t88 -662.5q-40 -210 -171 -361.5t-348 -151.5q-69 0 -116 41.5t-58 115.5q-61 -79 -137.5 -118t-170.5 -39q-119 0 -170.5 119.5t-6.5 309.5q62 254 197 407t296 153q98 0 160.5 -26.5t126.5 -77.5l-4 -4h6 l-137 -573q-25 -108 -1 -148.5t74 -40.5q116 0 207.5 112.5t124.5 281.5q73 374 -52.5 583.5t-455.5 209.5q-290 0 -514 -229t-292 -588q-73 -368 59.5 -582t440.5 -214q83 0 176 21t159 55l21 -105q-71 -41 -176 -64t-202 -23q-359 0 -531.5 247t-92.5 665zM678 196 q21 -73 93 -73q61 0 118 24.5t109 87.5q1 13 3.5 26t5.5 26l126 527q-25 12 -51.5 19t-56.5 7q-118 0 -201.5 -109t-135.5 -323q-31 -139 -10 -212z" />
<glyph unicode="A" horiz-adv-x="1269" d="M-36 0l728 1427h166l290 -1427h-197l-70 368h-538l-182 -368h-197zM423 529h427l-116 613l-6 1z" />
<glyph unicode="B" horiz-adv-x="1275" d="M88 0l214 1427h465q215 1 331 -97q93 -79 93 -218q0 -34 -5 -71q-15 -95 -81.5 -167.5t-166.5 -110.5q136 -19 202 -121q51 -79 52 -180q0 -29 -5 -59q-32 -204 -172 -303.5t-361 -99.5h-566zM304 151h372q128 0 213 65.5t103 184.5q4 26 4 50q0 88 -50 143 q-63 71 -189 75h-13h-363zM404 820h313q104 0 182.5 60t94.5 165q4 25 4 47q0 84 -50 128q-64 56 -203 55h-273z" />
<glyph unicode="C" horiz-adv-x="1271" d="M125 586l39 254q40 273 216.5 440t421.5 167q233 1 361 -129q100 -101 99 -252q0 -42 -7 -89l-3 -6h-185q5 37 5 70q0 107 -56 171q-74 84 -238 84q-155 0 -274 -132t-147 -322l-39 -256q-9 -59 -9 -111q1 -129 55 -219q76 -126 240 -126q155 0 258.5 88t127.5 239h184 l2 -6q-27 -209 -191 -340.5t-404 -131.5q-232 0 -364 173q-101 133 -101 317q0 56 9 117z" />
<glyph unicode="D" horiz-adv-x="1359" d="M88 0l214 1427h449q269 0 418 -174q117 -137 118 -333q0 -53 -9 -110l-29 -195q-44 -283 -236.5 -449t-475.5 -166h-449zM304 151h256q190 0 327.5 132t167.5 332l30 197q8 52 8 99q0 142 -71 237q-94 127 -294 127h-256z" />
<glyph unicode="E" horiz-adv-x="1107" d="M88 0l214 1427h868l-22 -152h-677l-68 -462h587l-24 -151h-586l-76 -511h686l-23 -151h-879z" />
<glyph unicode="F" horiz-adv-x="1107" d="M88 0l214 1427h895l-23 -152h-702l-74 -492h603l-23 -152h-603l-94 -631h-193z" />
<glyph unicode="G" horiz-adv-x="1359" d="M125 566l45 294q40 270 218 428.5t427 158.5q229 0 353 -128q97 -100 97 -241q0 -38 -7 -80l-3 -6h-185q4 29 4 57q0 96 -55 162q-71 85 -227 85q-157 0 -279 -123.5t-149 -310.5l-45 -296q-8 -50 -8 -96q0 -132 65 -220q88 -120 254 -120q121 0 203.5 34t123.5 77 l48 322h-323l23 150h516l-78 -521q-63 -79 -199 -146t-336 -67q-239 0 -380 165q-111 130 -111 316q0 51 8 106z" />
<glyph unicode="H" horiz-adv-x="1412" d="M88 0l214 1427h193l-97 -645h693l97 645h193l-214 -1427h-193l94 630h-693l-94 -630h-193z" />
<glyph unicode="I" horiz-adv-x="567" d="M108 0l213 1427h194l-213 -1427h-194z" />
<glyph unicode="J" horiz-adv-x="1100" d="M57 388l2 5h186q-6 -40 -6 -74q0 -82 37 -127q51 -62 167 -62q103 0 184 78t100 206l152 1013h193l-152 -1013q-31 -207 -168 -321t-332 -114q-189 0 -293 105q-78 80 -78 212q0 43 8 92z" />
<glyph unicode="K" horiz-adv-x="1201" d="M72 0l213 1427h193l-93 -620h126l534 620h237l2 -5l-642 -710l453 -712h-221l-399 645h-114l-96 -645h-193z" />
<glyph unicode="L" horiz-adv-x="1103" d="M88 0l214 1427h193l-191 -1276h696l-23 -151h-889z" />
<glyph unicode="M" horiz-adv-x="1743" d="M88 0l214 1427h254l280 -1159l6 -1l629 1160h240l-214 -1427h-193l160 1068l-6 2l-592 -1070h-134l-279 1105h-6l-166 -1105h-193z" />
<glyph unicode="N" horiz-adv-x="1413" d="M88 0l214 1427h193l524 -1090l6 1l163 1089h193l-214 -1427h-193l-524 1091l-6 -1l-163 -1090h-193z" />
<glyph unicode="O" horiz-adv-x="1368" d="M121 586l38 254q40 271 220.5 439t432.5 168q248 -1 390 -175q111 -137 111 -324q0 -52 -9 -108l-38 -254q-42 -272 -227 -439.5t-447 -167.5q-241 0 -376 174q-104 134 -104 319q0 55 9 114zM314 586q-9 -58 -9 -109q1 -130 59 -218q82 -122 251 -122q173 0 300.5 126.5 t157.5 322.5l38 256q8 52 8 99q-1 135 -65 226q-86 122 -266 122q-162 0 -285 -127t-151 -320z" />
<glyph unicode="P" horiz-adv-x="1275" d="M88 0l214 1427h546q218 -1 332 -119q91 -95 91 -236q0 -35 -5 -72q-31 -202 -172.5 -315t-373.5 -113h-353l-86 -572h-193zM389 723h354q139 0 225 79t104 196q4 28 4 54q0 86 -46 146q-60 78 -205 77h-353z" />
<glyph unicode="Q" horiz-adv-x="1398" d="M121 586l38 254q40 271 220.5 439t432.5 168q248 0 390 -175q110 -136 110 -324q0 -52 -8 -108l-38 -254q-18 -118 -65.5 -218t-117.5 -178l179 -204l-151 -126l-184 206q-74 -43 -159 -65t-176 -22q-241 0 -376 174q-104 134 -104 319q0 55 9 114zM314 586 q-9 -58 -9 -109q0 -130 59 -218q81 -122 251 -122q173 0 300.5 126.5t157.5 322.5l38 256q8 52 8 99q0 135 -65 226q-86 122 -266 122q-162 0 -285 -127t-151 -320z" />
<glyph unicode="R" horiz-adv-x="1276" d="M88 0l214 1426h488q226 0 338 -105q89 -83 89 -223q0 -37 -7 -78q-17 -115 -86.5 -195t-188.5 -126q109 -39 150 -126q28 -60 28 -138q0 -34 -5 -71l-20 -135q-7 -41 -6 -76q0 -25 2 -45q8 -52 39 -84l-4 -24h-199q-33 33 -34 97v12q0 59 9 122l19 131q4 29 4 55 q0 81 -42 133q-56 68 -171 68h-332l-92 -618h-193zM396 770h276q157 0 241.5 63.5t103.5 188.5q5 30 5 57q0 84 -46 132q-60 64 -209 64h-295z" />
<glyph unicode="S" horiz-adv-x="1218" d="M105 415l3 5h184q-4 -29 -4 -54q0 -114 84 -169q102 -67 257 -67q113 0 198 55.5t99 141.5q3 21 3 41q0 82 -53 136q-66 68 -251 129q-225 69 -327 171q-80 80 -79 216q0 37 6 78q25 166 160.5 257.5t334.5 91.5q231 -1 359 -117q101 -91 101 -236q0 -40 -8 -83l-2 -6 h-185q4 25 4 48q1 96 -63 162q-78 81 -229 81q-111 0 -189 -56.5t-90 -139.5q-4 -27 -4 -50q0 -82 46 -130q59 -60 256 -126q232 -76 332 -176q78 -78 77 -209q0 -38 -6 -80q-26 -173 -165 -261.5t-347 -88.5q-230 0 -385 106q-124 85 -124 246q0 40 7 84z" />
<glyph unicode="T" horiz-adv-x="1200" d="M149 1275l23 152h1127l-22 -152h-470l-192 -1275h-193l191 1275h-464z" />
<glyph unicode="U" horiz-adv-x="1358" d="M137 479l142 948h193l-142 -948q-6 -41 -6 -77q0 -114 60 -182q80 -90 229 -90q151 0 266.5 93.5t139.5 255.5l142 948h193l-142 -948q-36 -244 -206.5 -372t-414.5 -128q-225 0 -357 134q-105 106 -104 273q0 45 7 93z" />
<glyph unicode="V" horiz-adv-x="1269" d="M157 1427h210l210 -1053l15 -117l6 -1l50 118l526 1053h209l-744 -1427h-166z" />
<glyph unicode="W" horiz-adv-x="1727" d="M172 1427h208l69 -932l-4 -187l6 -1l62 188l392 932h189l115 -932l4 -190l6 -1l56 191l343 932h210l-559 -1427h-172l-137 990l-3 127l-5 1l-40 -128l-438 -990h-172z" />
<glyph unicode="X" horiz-adv-x="1269" d="M-14 0l571 719l-347 708h231l248 -557l416 557h234l-559 -708l355 -719h-230l-257 566l-428 -566h-234z" />
<glyph unicode="Y" horiz-adv-x="1269" d="M174 1427h221l265 -725l480 725h220l-639 -925l-75 -502h-192l77 516z" />
<glyph unicode="Z" horiz-adv-x="1122" d="M40 0l2 143l800 1132h-653l23 152h876l-21 -138l-803 -1138h725l-23 -151h-926z" />
<glyph unicode="[" horiz-adv-x="540" d="M24 -306l271 1937h377l-21 -152h-185l-228 -1633h184l-21 -152h-377z" />
<glyph unicode="\" horiz-adv-x="829" d="M173 1427h183l363 -1549h-182z" />
<glyph unicode="]" horiz-adv-x="540" d="M-106 -306l22 152h185l228 1633h-185l22 152h378l-272 -1937h-378z" />
<glyph unicode="^" horiz-adv-x="838" d="M88 714l400 713h131l186 -713h-178l-101 411l-5 68l-6 1l-26 -69l-221 -411h-180z" />
<glyph unicode="_" horiz-adv-x="912" d="M-97 -151l23 151h904l-22 -151h-905z" />
<glyph unicode="`" horiz-adv-x="628" d="M215 1483l3 5h226l134 -261h-155z" />
<glyph unicode="a" horiz-adv-x="1103" d="M71 298q22 157 156.5 240t347.5 83h210l16 105q3 22 3 41q0 69 -38 109q-48 52 -153 52q-89 0 -156.5 -47t-76.5 -113l-184 -2l-1 6q12 121 140.5 214.5t311.5 93.5q173 0 272 -92q80 -74 80 -200q0 -30 -5 -64l-77 -510q-10 -60 -11 -112v-12q0 -45 6 -90h-199 q-2 55 -2 88.5t4 69.5q-65 -76 -159.5 -127.5t-193.5 -51.5q-160 0 -237 86q-59 66 -59 169q0 30 5 64zM263 294q-3 -18 -3 -34q0 -50 28 -80q38 -40 127 -39q99 0 193.5 55t130.5 123l26 172h-216q-113 0 -194.5 -60t-91.5 -137z" />
<glyph unicode="b" d="M62 0l229 1529h193l-89 -594q62 70 141 107.5t177 37.5q189 0 279 -158q63 -112 63 -272q0 -66 -11 -139l-3 -21q-37 -238 -166 -374.5t-324 -136.5q-103 0 -174.5 43.5t-111.5 126.5l-55 -149h-148zM300 302q25 -79 79 -122.5t146 -43.5q132 0 215.5 98.5t107.5 255.5 l3 21q10 68 10 126q0 103 -32 175q-50 112 -188 111q-86 0 -155.5 -44.5t-117.5 -119.5z" />
<glyph unicode="c" horiz-adv-x="1050" d="M93 510l6 41q35 232 178 380.5t368 148.5q171 0 271 -111q78 -87 78 -202q0 -32 -6 -67l-2 -5h-177q3 23 3 43q0 72 -40 124q-52 66 -150 66q-136 0 -221 -112t-108 -265l-6 -41q-9 -57 -9 -106q0 -96 32 -166q48 -108 193 -108q85 0 162 60t91 145h174l2 -6 q-18 -143 -153.5 -246.5t-298.5 -103.5q-212 -1 -316 153q-78 116 -79 274q0 50 8 104z" />
<glyph unicode="d" d="M91 490l3 21q39 265 170.5 417t330.5 152q91 0 158 -36.5t109 -104.5l89 590h193l-230 -1529h-148l-8 134q-64 -76 -146.5 -115.5t-183.5 -39.5q-187 1 -279 143q-67 104 -67 252q0 55 9 116zM284 490q-8 -54 -8 -101q0 -96 34 -159q52 -94 191 -94q83 0 148.5 40.5 t114.5 111.5l74 491q-28 67 -81 105.5t-137 38.5q-133 0 -219.5 -116t-113.5 -296z" />
<glyph unicode="e" horiz-adv-x="1050" d="M93 510l7 43q34 237 186.5 382t345.5 145q205 0 295 -134q66 -99 67 -243q0 -51 -9 -107l-15 -102h-686q-6 -48 -6 -90q0 -106 40 -176q56 -98 202 -98q94 0 175 28.5t140 76.5l57 -125q-65 -55 -164 -93t-230 -38q-220 0 -330 148q-83 112 -83 275q0 51 8 108zM320 652 l2 -6h478l2 16q5 32 5 61q0 77 -33 131q-45 74 -164 74q-97 0 -176 -78.5t-114 -197.5z" />
<glyph unicode="f" horiz-adv-x="660" d="M114 917l21 143h166l20 135q27 176 128 265t261 89q33 0 67 -5.5t73 -14.5l-45 -147q-18 4 -43 7t-52 3q-81 0 -131.5 -51.5t-64.5 -145.5l-20 -135h192l-22 -143h-192l-137 -917h-193l137 917h-165z" />
<glyph unicode="g" d="M90 -350l52 150q52 -29 128 -47.5t152 -18.5q136 0 212.5 65.5t96.5 194.5l18 121q-62 -67 -140 -101.5t-172 -34.5q-186 0 -278 143q-67 104 -67 252q0 55 9 116l3 21q39 265 170.5 417t329.5 152q99 0 169.5 -42t111.5 -122l45 144h154l-160 -1066q-32 -212 -165 -317 t-359 -105q-74 0 -161 21.5t-149 56.5zM294 490q-8 -55 -8 -101q0 -96 34 -159q51 -94 190 -94q84 0 149.5 41t115.5 114l74 485q-29 68 -82.5 107.5t-137.5 39.5q-132 0 -219 -116.5t-113 -295.5z" />
<glyph unicode="h" d="M62 0l229 1529h193l-91 -605q67 75 152 115.5t183 40.5q164 0 246 -103q60 -75 59 -208q0 -49 -8 -105l-100 -664h-193l100 666q6 42 6 77q0 77 -32 119q-47 60 -160 61q-83 0 -153.5 -35t-119.5 -98l-118 -790h-193z" />
<glyph unicode="i" horiz-adv-x="505" d="M77 0l159 1060h193l-159 -1060h-193zM277 1332l30 197h193l-30 -197h-193z" />
<glyph unicode="j" horiz-adv-x="519" d="M-205 -411l36 152q13 -5 39 -8t42 -3q63 0 107.5 43.5t58.5 139.5l172 1147h193l-172 -1147q-26 -170 -122 -255.5t-248 -85.5q-28 0 -53.5 4.5t-52.5 12.5zM285 1336l30 193h193l-30 -193h-193z" />
<glyph unicode="k" horiz-adv-x="1029" d="M63 0l229 1529h193l-133 -886h97l381 417h224l2 -6l-452 -483l332 -571h-228l-279 489h-100l-73 -489h-193z" />
<glyph unicode="l" horiz-adv-x="505" d="M77 0l230 1529h193l-230 -1529h-193z" />
<glyph unicode="m" horiz-adv-x="1754" d="M62 0l158 1060h173l-7 -134q63 75 148 114.5t193 39.5q101 0 170.5 -49t94.5 -146q62 91 153 143t203 52q155 0 235 -112q57 -80 58 -216q0 -54 -10 -118l-95 -634h-193l95 636q9 58 9 103q-1 82 -29 122q-44 62 -152 62q-95 0 -168 -69.5t-100 -173.5q-1 -2 -1 -3.5 v-3.5l-101 -673h-194l95 636q8 53 8 95q1 82 -29 126q-44 66 -151 66q-86 0 -149 -38.5t-105 -107.5l-116 -777h-193z" />
<glyph unicode="n" d="M62 0l158 1060h173l-9 -152q65 83 151.5 127.5t188.5 44.5q166 0 248 -102q59 -73 59 -201q0 -50 -9 -108l-100 -669h-193l100 665q7 47 7 85q0 78 -31 116q-46 56 -162 57q-86 0 -155 -37.5t-116 -104.5l-117 -781h-193z" />
<glyph unicode="o" d="M94 518l4 22q36 244 184.5 392t369.5 148q210 0 320 -154q84 -117 84 -280q0 -51 -8 -106l-4 -22q-38 -246 -186 -392.5t-369 -146.5q-212 0 -321 153q-83 116 -83 277q0 52 9 109zM287 518q-8 -56 -9 -105q0 -103 38 -176q54 -107 196 -107q132 0 222.5 111.5 t116.5 276.5l4 22q8 53 8 101q-1 105 -39 179q-56 108 -195 108q-133 0 -223.5 -112t-114.5 -276z" />
<glyph unicode="p" d="M1 -408l219 1468h148l10 -137q64 77 147.5 117t185.5 40q190 0 279 -158q63 -112 63 -271q0 -66 -11 -140l-3 -21q-36 -238 -165 -374.5t-324 -136.5q-95 0 -164.5 35t-113.5 103l-78 -525h-193zM295 270q27 -66 80 -103t139 -37q131 0 219.5 101.5t112.5 258.5l3 21 q10 64 10 119q0 106 -36 180q-54 113 -193 113q-80 0 -145.5 -38.5t-113.5 -105.5z" />
<glyph unicode="q" d="M91 490l3 21q39 265 170.5 417t330.5 152q94 0 162 -38t109 -111l48 129h148l-219 -1468h-193l75 508q-59 -60 -133.5 -90.5t-163.5 -30.5q-187 0 -279 143q-67 104 -67 252q0 55 9 116zM284 490q-8 -55 -8 -102q0 -97 34 -162q51 -96 190 -96q76 0 139 36.5t112 102.5 l79 531q-28 59 -80 93.5t-129 34.5q-133 0 -220 -118.5t-114 -298.5z" />
<glyph unicode="r" horiz-adv-x="702" d="M62 0l158 1060h173l-4 -150q57 81 129.5 125.5t159.5 44.5q21 0 41 -3.5t32 -7.5l-54 -179l-98 6q-76 0 -133.5 -38t-97.5 -106l-113 -752h-193z" />
<glyph unicode="s" horiz-adv-x="1049" d="M78 322l2 6h186q-1 -13 -1 -24q1 -84 57 -126q64 -48 160 -48q99 0 164.5 44.5t76.5 110.5q2 12 2 22q0 50 -35 83q-42 39 -175 70q-183 40 -273 112q-75 60 -75 155q0 19 3 39q18 136 140 225t300 89q172 0 274 -99q83 -81 84 -181q0 -23 -5 -46l-2 -6h-185q2 11 2 22 q0 57 -44 103q-52 55 -145 55q-98 0 -157.5 -46.5t-67.5 -109.5q-2 -12 -2 -23q0 -47 31 -75q38 -34 172 -62q190 -40 280 -116q76 -64 76 -160q0 -18 -3 -37q-20 -146 -145.5 -233t-311.5 -87q-195 0 -301 104q-87 85 -86 190q0 24 4 49z" />
<glyph unicode="t" horiz-adv-x="676" d="M106 917l21 143h169l38 256h193l-38 -256h201l-22 -143h-201l-96 -644q-3 -23 -3 -42q0 -44 18 -64q26 -29 78 -29q15 0 37 4.5t36 9.5l7 -132q-25 -18 -68.5 -29.5t-84.5 -11.5q-114 -1 -175 71q-44 52 -44 146q0 35 6 77l96 644h-168z" />
<glyph unicode="u" d="M123 435l94 625h193l-94 -627q-11 -71 -11 -123q0 -77 24 -113q40 -61 148 -61q101 0 175.5 43.5t121.5 123.5l113 757h193l-159 -1060h-173l11 152q-63 -84 -148 -128.5t-189 -44.5q-166 1 -250 113q-59 79 -59 217q0 58 10 126z" />
<glyph unicode="v" horiz-adv-x="1009" d="M125 1060h198l140 -747l5 -75l6 -1l30 76l355 747h197l-548 -1060h-146z" />
<glyph unicode="w" horiz-adv-x="1519" d="M124 1060h201l66 -674l4 -135l5 -1l47 136l313 674h154l112 -674l5 -152l6 -1l54 153l257 674h202l-466 -1060h-156l-113 646l-14 167l-6 1l-63 -168l-303 -646h-156z" />
<glyph unicode="x" horiz-adv-x="1009" d="M-29 5l430 531l-266 524h223l163 -391l285 391h218l3 -5l-418 -519l273 -536h-221l-176 401l-295 -401h-216z" />
<glyph unicode="y" horiz-adv-x="1009" d="M-39 -413l42 152q-3 1 35.5 -2t49.5 -3q59 0 109.5 57.5t83.5 119.5l64 111l-239 1038h215l124 -667l15 -133l6 -1l380 801h214l-629 -1223q-57 -107 -143.5 -186t-213.5 -79q-23 0 -58.5 5.5t-54.5 9.5z" />
<glyph unicode="z" horiz-adv-x="1009" d="M14 0l20 135l684 768l-2 4h-559l22 153h803l-20 -131l-691 -773l2 -5h606l-22 -151h-843z" />
<glyph unicode="{" horiz-adv-x="682" d="M63 532l3 23l13 99l4 22q100 0 160.5 61.5t76.5 169.5l28 202q23 174 119.5 288t296.5 168l23 -115q-113 -34 -170.5 -122t-75.5 -219l-27 -202q-16 -106 -68.5 -185t-142.5 -121q75 -46 106.5 -124.5t18.5 -176.5l-28 -201q-20 -133 13.5 -219t137.5 -121l-56 -116 q-183 54 -247.5 171.5t-40.5 284.5l28 201q16 114 -25.5 173t-146.5 59z" />
<glyph unicode="|" horiz-adv-x="496" d="M24 -265l253 1692h193l-252 -1692h-194z" />
<glyph unicode="}" horiz-adv-x="682" d="M-86 -241q111 35 169 123t77 217l28 201q15 110 70.5 187.5t153.5 118.5q-85 42 -119.5 120.5t-19.5 180.5l28 202q18 134 -15 220.5t-136 120.5l57 115q182 -54 246 -171t41 -285l-28 -202q-16 -114 25 -172.5t148 -58.5l-16 -112h-1l-4 -32q-102 0 -162 -62t-75 -170 l-28 -201q-26 -173 -121.5 -287.5t-294.5 -168.5z" />
<glyph unicode="~" horiz-adv-x="1363" d="M122 469q15 135 110.5 226.5t226.5 91.5q82 0 153.5 -35t144.5 -101q51 -50 94.5 -72.5t93.5 -22.5q62 0 118.5 55.5t67.5 131.5l129 -17l2 -6q-16 -136 -113 -231.5t-227 -95.5q-84 0 -153.5 33t-142.5 104q-52 47 -96.5 70.5t-93.5 23.5q-64 0 -118.5 -52.5 t-64.5 -124.5l-130 17z" />
<glyph unicode="&#xa1;" horiz-adv-x="496" d="M8 -367l144 959h193l-144 -959h-193zM191 858l30 202h194l-31 -202h-193z" />
<glyph unicode="&#xa2;" horiz-adv-x="1099" d="M93 510l6 41q30 206 148 348t304 173l33 220h194l-34 -224q129 -31 199 -134t50 -239h-184q15 101 -37 167t-150 66q-136 0 -221 -112t-108 -265l-6 -41q-25 -165 23 -272.5t193 -107.5q85 0 162 60t91 145h175l2 -6q-14 -118 -115 -212.5t-235 -125.5l-35 -231h-194 l34 228q-168 34 -246.5 180t-48.5 342z" />
<glyph unicode="&#xa3;" horiz-adv-x="1170" d="M53 0l22 151h10q49 13 87.5 109t52.5 197l16 146h-161l24 152h155l29 264q31 208 156.5 318t312.5 110q188 0 284 -103t67 -270l-3 -6h-186q18 121 -35 174.5t-151 53.5q-94 0 -163.5 -73.5t-88.5 -203.5l-30 -264h410l-23 -152h-404l-17 -146q-14 -91 -40.5 -170 t-62.5 -136h719l-24 -151h-956z" />
<glyph unicode="&#xa4;" horiz-adv-x="1426" d="M40 110l158 139q-39 74 -52.5 162.5t1.5 184.5q15 103 56.5 195.5t104.5 167.5l-119 143l157 137l116 -140q80 53 172 81.5t188 28.5q91 0 173.5 -31t149.5 -87l168 149l117 -138l-173 -152q41 -77 55.5 -167t0.5 -187q-15 -99 -53 -187.5t-95 -160.5l116 -138l-158 -136 l-108 129q-84 -60 -180.5 -91.5t-196.5 -31.5q-95 0 -180.5 33t-151.5 95l-150 -133zM325 596q-28 -191 70 -317.5t268 -126.5q161 0 301.5 131t168.5 313q27 189 -70.5 315t-265.5 126q-163 0 -303.5 -130.5t-168.5 -310.5z" />
<glyph unicode="&#xa5;" horiz-adv-x="1218" d="M105 319l17 120h368l24 164h-367l19 120h303l-304 704h221l254 -650l451 650h219l-514 -704h306l-19 -120h-375l-25 -164h375l-17 -120h-376l-48 -319h-193l48 319h-367z" />
<glyph unicode="&#xa6;" horiz-adv-x="489" d="M24 -265l116 777h193l-115 -777h-194zM167 684l110 743h193l-110 -743h-193z" />
<glyph unicode="&#xa7;" horiz-adv-x="1233" d="M4 -69l2 6l186 2q-22 -146 61.5 -209t218.5 -63q129 0 217.5 58.5t102.5 147.5q13 92 -49 139.5t-255 109.5q-225 62 -322 153.5t-71 264.5q14 92 69.5 160.5t145.5 108.5q-58 49 -80.5 117t-8.5 162q25 168 169.5 263.5t367.5 95.5q219 0 334 -110t81 -306l-2 -6h-185 q18 121 -48 196t-204 75q-137 0 -222 -59.5t-97 -146.5q-16 -101 41.5 -147t257.5 -104q230 -68 326 -156.5t70 -260.5q-14 -96 -70.5 -164t-147.5 -106q60 -49 83 -115t10 -162q-28 -176 -170 -268t-365 -92q-210 0 -346 101.5t-100 314.5zM288 542q-16 -102 42.5 -150 t258.5 -107q41 -12 78.5 -24.5t71.5 -25.5q73 21 120.5 70t57.5 114q14 93 -48.5 143t-255.5 113q-43 11 -81 23.5t-72 26.5q-73 -19 -118 -67.5t-54 -115.5z" />
<glyph unicode="&#xa8;" horiz-adv-x="1000" d="M266 1231l27 196h215l-28 -196h-214zM726 1231l28 196h214l-27 -196h-215z" />
<glyph unicode="&#xa9;" horiz-adv-x="1571" d="M115 714q48 321 279.5 526.5t525.5 205.5q278 0 454.5 -213.5t130.5 -518.5q-48 -321 -280 -528t-524 -207q-279 0 -455.5 214.5t-130.5 520.5zM233 714q-41 -270 100 -443t385 -173q231 0 430.5 179.5t239.5 436.5q40 269 -101 441t-384 172q-233 0 -432.5 -178.5 t-237.5 -434.5zM447 656l18 116q25 176 132.5 278t264.5 102q149 0 226.5 -78.5t52.5 -223.5l-2 -5h-144q14 97 -23.5 137.5t-127.5 40.5q-88 0 -151 -69.5t-80 -180.5l-17 -117q-18 -120 22 -186t133 -66q86 0 137.5 42.5t66.5 137.5h142l2 -6q-19 -153 -115.5 -227.5 t-252.5 -74.5q-150 0 -230 105.5t-54 274.5z" />
<glyph unicode="&#xaa;" horiz-adv-x="898" d="M174 902q17 111 107.5 168t250.5 57h135l8 51q10 64 -14 96t-82 32q-63 0 -104 -26.5t-48 -74.5l-156 13l-1 6q9 100 100.5 161.5t230.5 61.5q126 0 194 -70.5t49 -199.5l-46 -308q-8 -50 -8 -92.5t7 -84.5h-171q-4 21 -6 45t-1 48q-39 -46 -98.5 -76.5t-135.5 -30.5 q-112 0 -169 61t-42 163zM345 906q-8 -47 17 -69.5t85 -22.5q48 0 106 29.5t81 63.5l17 108h-136q-70 0 -117 -32t-53 -77z" />
<glyph unicode="&#xab;" horiz-adv-x="946" d="M91 496l1 6l1 7l1 6l346 381h145l-309 -391l192 -390h-145zM420 496l1 6l1 7l1 6l346 381h145l-309 -391l192 -390h-145z" />
<glyph unicode="&#xac;" horiz-adv-x="1114" d="M140 624l24 162h818l-11 -75l-2 -8l-11 -79h-1l-38 -256h-194l38 256h-623z" />
<glyph unicode="&#xad;" horiz-adv-x="904" d="M165 527l22 151h578l-22 -151h-578z" />
<glyph unicode="&#xae;" horiz-adv-x="1571" d="M115 714q48 321 279.5 526.5t525.5 205.5q278 0 454.5 -213.5t130.5 -518.5q-48 -321 -280 -528t-524 -207q-279 0 -455.5 214.5t-130.5 520.5zM233 714q-41 -270 100 -443t385 -173q231 0 430.5 179.5t238.5 436.5q40 269 -100.5 441t-383.5 172q-233 0 -432.5 -178.5 t-237.5 -434.5zM462 310l125 833h274q143 0 220.5 -65t60.5 -187q-10 -64 -49 -109t-106 -75q59 -27 81 -79.5t12 -122.5l-8 -55q-7 -42 -8 -73t6 -52l-3 -15h-150q-5 20 -1.5 57.5t10.5 83.5l8 53q11 73 -16.5 105t-104.5 32h-156l-49 -331h-146zM676 768h150q64 1 113 32 t58 86q10 74 -24 101.5t-131 27.5h-129z" />
<glyph unicode="&#xaf;" horiz-adv-x="931" d="M226 1284l21 143h707l-21 -143h-707z" />
<glyph unicode="&#xb0;" horiz-adv-x="747" d="M225 1192q17 107 102 181t189 74q97 0 160.5 -76t47.5 -179q-16 -110 -98.5 -181t-185.5 -71q-100 0 -165 73.5t-50 178.5zM354 1192q-9 -56 22 -90.5t83 -34.5q49 0 89.5 36t49.5 89q8 56 -21 91.5t-80 35.5q-50 0 -92.5 -37t-50.5 -90z" />
<glyph unicode="&#xb1;" horiz-adv-x="1075" d="M62 4l22 152h819l-23 -152h-818zM120 688l21 151h373l56 403h174l-57 -403h352l-22 -151h-351l-56 -405h-174l57 405h-373z" />
<glyph unicode="&#xb2;" horiz-adv-x="850" d="M139 654l20 127l334 257q76 59 103 95.5t33 77.5q7 50 -15.5 80t-80.5 30q-63 0 -105 -32t-49 -80h-157l-2 6q9 101 101 167.5t232 66.5q127 0 194 -63.5t51 -175.5q-12 -81 -61 -132t-183 -159l-171 -132l2 -6h354l-20 -127h-580z" />
<glyph unicode="&#xb3;" horiz-adv-x="858" d="M161 864l2 6h159q-6 -47 26 -74t95 -27q68 0 115 29.5t54 75.5q8 64 -22.5 90.5t-103.5 26.5h-129l12 85l6 38h130q62 0 99.5 28.5t45.5 78.5q7 44 -24.5 71.5t-100.5 27.5q-52 0 -91 -23.5t-44 -62.5h-159l-1 6q8 96 98.5 152t216.5 56q137 0 212.5 -58.5t59.5 -165.5 q-9 -57 -50 -101.5t-105 -68.5q64 -24 94.5 -70t21.5 -112q-18 -113 -114 -171.5t-241 -58.5q-119 0 -201.5 57.5t-60.5 164.5z" />
<glyph unicode="&#xb4;" horiz-adv-x="640" d="M231 1232l214 256h224l2 -6l-300 -255h-138z" />
<glyph unicode="&#xb5;" d="M11 -408l219 1468h192l-91 -609q-29 -194 14.5 -257.5t146.5 -63.5q94 0 160 38t108 110l117 782h193l-159 -1060h-173l7 102q-52 -61 -119 -92t-149 -31q-68 0 -119.5 16.5t-87.5 52.5l-67 -456h-192z" />
<glyph unicode="&#xb6;" horiz-adv-x="985" d="M128 968q32 210 176.5 334.5t374.5 124.5h276l-214 -1427h-193l76 510h-82q-220 0 -332 128t-82 330z" />
<glyph unicode="&#xb7;" horiz-adv-x="529" d="M172 612l30 207h194l-30 -207h-194z" />
<glyph unicode="&#xb8;" horiz-adv-x="498" d="M-19 -426l9 107q68 0 116 24t56 72q7 49 -25 66.5t-117 24.5l51 132h137l-20 -51q62 -11 98 -51t25 -118q-15 -98 -100 -152t-230 -54z" />
<glyph unicode="&#xb9;" horiz-adv-x="545" d="M209 1294l19 131l299 22l-119 -795h-171l96 642h-124z" />
<glyph unicode="&#xba;" horiz-adv-x="914" d="M190 1004l17 115q22 150 127 239t261 89q149 0 230 -92.5t59 -235.5l-17 -115q-23 -151 -126.5 -239t-259.5 -88q-149 0 -230.5 91.5t-60.5 235.5zM360 1004q-14 -89 21 -139t121 -50q77 0 130 52.5t67 136.5l16 115q13 85 -22.5 136t-119.5 51q-79 0 -131.5 -53 t-65.5 -134z" />
<glyph unicode="&#xbb;" horiz-adv-x="946" d="M61 167l282 372l-170 372h145l219 -349h5v-8l4 -6l-3 -9v-9l-6 -6l-1 -7h-4l-326 -350h-145zM400 167l282 372l-170 372h145l219 -349h5v-8l4 -6l-3 -9v-9l-6 -6l-1 -7h-4l-326 -350h-145z" />
<glyph unicode="&#xbc;" horiz-adv-x="1563" d="M281 181l863 1116l97 -66l-863 -1115zM296 1293l19 131l299 23l-119 -796h-171l96 642h-124zM721 149l7 100l494 536h170l-77 -509h124l-19 -127h-124l-22 -149h-167l23 149h-409zM915 281l2 -5h232l45 302l-5 3l-16 -21z" />
<glyph unicode="&#xbd;" horiz-adv-x="1673" d="M294 181l863 1116l97 -66l-863 -1115zM296 1293l19 131l299 23l-119 -796h-171l96 642h-124zM836 0l20 127l334 257q76 59 103 95.5t33 78.5q7 50 -15.5 79.5t-80.5 29.5q-63 0 -105 -31.5t-49 -79.5h-157l-2 6q9 100 101 167t232 67q127 0 194 -64t51 -175 q-12 -82 -61 -133t-183 -158l-171 -133l2 -6h354l-20 -127h-580z" />
<glyph unicode="&#xbe;" horiz-adv-x="1745" d="M177 866l2 6h159q-6 -47 26 -74t95 -27q68 0 115 29t54 75q8 64 -22.5 90.5t-103.5 26.5h-129l12 85l6 39h130q62 0 99.5 28t45.5 78q7 44 -24.5 71.5t-100.5 27.5q-52 0 -91 -23.5t-44 -62.5h-159l-1 6q8 96 98.5 152.5t216.5 56.5q137 0 212.5 -59t59.5 -166 q-9 -57 -49.5 -101.5t-105.5 -67.5q65 -25 95 -71t21 -111q-18 -114 -114 -172.5t-241 -58.5q-119 0 -201.5 57.5t-60.5 165.5zM461 181l863 1116l97 -66l-863 -1115zM906 149l7 100l494 536h170l-77 -509h124l-19 -127h-124l-22 -149h-167l23 149h-409zM1100 281l2 -5h232 l45 302l-5 3l-16 -21z" />
<glyph unicode="&#xbf;" horiz-adv-x="992" d="M31 -13q19 131 100.5 230t218.5 215q60 52 77.5 94t32.5 133h193q-24 -144 -56 -198t-144 -144q-118 -119 -167 -179.5t-61 -145.5q-16 -108 30.5 -161.5t151.5 -53.5q86 0 157.5 49t85.5 142h184l2 -6q-23 -158 -150.5 -253t-303.5 -95q-186 0 -281.5 99.5t-69.5 273.5z M482 857l31 204h201l-30 -204h-202z" />
<glyph unicode="&#xc0;" horiz-adv-x="1269" d="M-36 0l728 1427h166l290 -1427h-197l-70 368h-538l-182 -368h-197zM423 529h427l-116 613l-6 1zM502 1825l3 5h226l134 -261h-155z" />
<glyph unicode="&#xc1;" horiz-adv-x="1269" d="M-36 0l728 1427h166l290 -1427h-197l-70 368h-538l-182 -368h-197zM423 529h427l-116 613l-6 1zM700 1570l214 256h224l2 -6l-300 -255h-138z" />
<glyph unicode="&#xc2;" horiz-adv-x="1269" d="M-36 0l728 1427h166l290 -1427h-197l-70 368h-538l-182 -368h-197zM423 529h427l-116 613l-6 1zM492 1569l4 25l276 233h117l209 -234l-4 -24h-158l-122 145l-165 -145h-157z" />
<glyph unicode="&#xc3;" horiz-adv-x="1269" d="M-36 0l728 1427h166l290 -1427h-197l-70 368h-538l-182 -368h-197zM423 529h427l-116 613l-6 1zM449 1596q12 94 79 159.5t157 65.5q51 0 128.5 -46t129.5 -46q38 0 72.5 31.5t41.5 78.5l102 -32q-14 -95 -80.5 -157t-155.5 -62q-66 0 -136.5 45.5t-121.5 45.5 q-40 0 -74 -32.5t-40 -76.5z" />
<glyph unicode="&#xc4;" horiz-adv-x="1269" d="M-36 0l728 1427h166l290 -1427h-197l-70 368h-538l-182 -368h-197zM423 529h427l-116 613l-6 1zM448 1573l27 196h215l-28 -196h-214zM908 1573l28 196h214l-27 -196h-215z" />
<glyph unicode="&#xc5;" horiz-adv-x="1269" d="M-36 0l728 1427h166l290 -1427h-197l-70 368h-538l-182 -368h-197zM423 529h427l-116 613l-6 1zM638 1699q11 73 68.5 119t129.5 46q68 0 111 -48t33 -117q-10 -75 -65.5 -118t-127.5 -43q-69 0 -114 45t-35 116zM736 1699q-5 -32 14 -52.5t50 -20.5q29 0 53 20.5 t29 52.5q5 33 -12 54t-47 21t-56 -22t-31 -53z" />
<glyph unicode="&#xc6;" horiz-adv-x="1959" d="M-65 0l1077 1427h948l-23 -152h-677l-49 -457h578l-22 -152h-572l-56 -515h691l-23 -151h-877l36 343h-545l-249 -343h-237zM549 518h437l74 694l-6 3z" />
<glyph unicode="&#xc7;" horiz-adv-x="1271" d="M125 586l39 254q40 273 216.5 440t421.5 167q233 0 361 -129.5t92 -340.5l-3 -6h-185q23 156 -51.5 240.5t-237.5 84.5q-155 0 -274 -132t-147 -322l-39 -256q-31 -203 45.5 -329.5t240.5 -126.5q155 0 258.5 88t127.5 239h184l2 -6q-27 -209 -191 -340.5t-404 -131.5 q-232 0 -364 173t-92 434zM433 -435l9 107q68 0 116 24t56 72q7 49 -25 66.5t-117 24.5l51 132h137l-20 -51q62 -11 98 -51t25 -118q-15 -98 -100 -152t-230 -54z" />
<glyph unicode="&#xc8;" horiz-adv-x="1107" d="M88 0l214 1427h868l-22 -152h-677l-68 -462h587l-24 -151h-586l-76 -511h686l-23 -151h-879zM474 1825l3 5h226l134 -261h-155z" />
<glyph unicode="&#xc9;" horiz-adv-x="1107" d="M88 0l214 1427h868l-22 -152h-677l-68 -462h587l-24 -151h-586l-76 -511h686l-23 -151h-879zM672 1570l214 256h224l2 -6l-300 -255h-138z" />
<glyph unicode="&#xca;" horiz-adv-x="1107" d="M88 0l214 1427h868l-22 -152h-677l-68 -462h587l-24 -151h-586l-76 -511h686l-23 -151h-879zM463 1569l4 25l276 233h117l209 -234l-4 -24h-158l-122 145l-165 -145h-157z" />
<glyph unicode="&#xcb;" horiz-adv-x="1107" d="M88 0l214 1427h868l-22 -152h-677l-68 -462h587l-24 -151h-586l-76 -511h686l-23 -151h-879zM420 1573l27 196h215l-28 -196h-214zM880 1573l28 196h214l-27 -196h-215z" />
<glyph unicode="&#xcc;" horiz-adv-x="567" d="M108 0l213 1427h194l-213 -1427h-194zM151 1825l3 5h226l134 -261h-155z" />
<glyph unicode="&#xcd;" horiz-adv-x="567" d="M108 0l213 1427h194l-213 -1427h-194zM349 1570l214 256h224l2 -6l-300 -255h-138z" />
<glyph unicode="&#xce;" horiz-adv-x="567" d="M108 0l213 1427h194l-213 -1427h-194zM141 1569l4 25l276 233h117l209 -234l-4 -24h-158l-122 145l-165 -145h-157z" />
<glyph unicode="&#xcf;" horiz-adv-x="567" d="M97 1573l27 196h215l-28 -196h-214zM108 0l213 1427h194l-213 -1427h-194zM557 1573l28 196h214l-27 -196h-215z" />
<glyph unicode="&#xd0;" horiz-adv-x="1359" d="M21 650l23 152h164l94 625h449q269 0 418 -174t109 -443l-29 -195q-44 -283 -236.5 -449t-475.5 -166h-449l97 650h-164zM304 151h256q190 0 327.5 132t167.5 332l30 197q31 209 -63 336t-294 127h-256l-71 -473h271l-23 -152h-271z" />
<glyph unicode="&#xd1;" horiz-adv-x="1413" d="M88 0l214 1427h193l524 -1090l6 1l163 1089h193l-214 -1427h-193l-524 1091l-6 -1l-163 -1090h-193zM518 1596q12 94 79 159.5t157 65.5q51 0 128.5 -46t129.5 -46q38 0 72.5 31.5t41.5 78.5l102 -32q-14 -95 -80.5 -157t-155.5 -62q-66 0 -136.5 45.5t-121.5 45.5 q-40 0 -74 -32.5t-40 -76.5z" />
<glyph unicode="&#xd2;" horiz-adv-x="1368" d="M121 586l38 254q40 271 220.5 439t432.5 168q248 0 389.5 -174.5t102.5 -432.5l-38 -254q-42 -272 -227 -439.5t-447 -167.5q-241 0 -376 174t-95 433zM314 586q-32 -205 49.5 -327t251.5 -122q173 0 300.5 126.5t157.5 322.5l38 256q30 203 -56.5 325t-266.5 122 q-162 0 -285 -127t-151 -320zM555 1846l3 5h226l134 -261h-155z" />
<glyph unicode="&#xd3;" horiz-adv-x="1368" d="M121 586l38 254q40 271 220.5 439t432.5 168q248 0 389.5 -174.5t102.5 -432.5l-38 -254q-42 -272 -227 -439.5t-447 -167.5q-241 0 -376 174t-95 433zM314 586q-32 -205 49.5 -327t251.5 -122q173 0 300.5 126.5t157.5 322.5l38 256q30 203 -56.5 325t-266.5 122 q-162 0 -285 -127t-151 -320zM752 1591l214 256h224l2 -6l-300 -255h-138z" />
<glyph unicode="&#xd4;" horiz-adv-x="1368" d="M121 586l38 254q40 271 220.5 439t432.5 168q248 0 389.5 -174.5t102.5 -432.5l-38 -254q-42 -272 -227 -439.5t-447 -167.5q-241 0 -376 174t-95 433zM314 586q-32 -205 49.5 -327t251.5 -122q173 0 300.5 126.5t157.5 322.5l38 256q30 203 -56.5 325t-266.5 122 q-162 0 -285 -127t-151 -320zM544 1590l4 25l276 233h117l209 -234l-4 -24h-158l-122 145l-165 -145h-157z" />
<glyph unicode="&#xd5;" horiz-adv-x="1368" d="M121 586l38 254q40 271 220.5 439t432.5 168q248 0 389.5 -174.5t102.5 -432.5l-38 -254q-42 -272 -227 -439.5t-447 -167.5q-241 0 -376 174t-95 433zM314 586q-32 -205 49.5 -327t251.5 -122q173 0 300.5 126.5t157.5 322.5l38 256q30 203 -56.5 325t-266.5 122 q-162 0 -285 -127t-151 -320zM501 1617q12 94 79 159.5t157 65.5q51 0 128.5 -46t129.5 -46q38 0 72.5 31.5t41.5 78.5l102 -32q-14 -95 -80.5 -157t-155.5 -62q-66 0 -136.5 45.5t-121.5 45.5q-40 0 -74 -32.5t-40 -76.5z" />
<glyph unicode="&#xd6;" horiz-adv-x="1368" d="M121 586l38 254q40 271 220.5 439t432.5 168q248 0 389.5 -174.5t102.5 -432.5l-38 -254q-42 -272 -227 -439.5t-447 -167.5q-241 0 -376 174t-95 433zM314 586q-32 -205 49.5 -327t251.5 -122q173 0 300.5 126.5t157.5 322.5l38 256q30 203 -56.5 325t-266.5 122 q-162 0 -285 -127t-151 -320zM501 1594l27 196h215l-28 -196h-214zM961 1594l28 196h214l-27 -196h-215z" />
<glyph unicode="&#xd7;" horiz-adv-x="1074" d="M60 344l369 327l-271 328l142 123l270 -326l370 326l105 -123l-371 -328l273 -327l-142 -124l-272 326l-368 -326z" />
<glyph unicode="&#xd8;" horiz-adv-x="1368" d="M52 -92l174 234q-70 82 -98 197t-7 247l38 254q40 271 220.5 439t432.5 168q91 0 169 -25.5t142 -73.5l103 139h146l-165 -222q63 -83 89 -192.5t8 -232.5l-38 -254q-42 -272 -227 -439.5t-447 -167.5q-81 0 -151.5 21t-127.5 62l-115 -154h-146zM307.5 428 q7.5 -72 33.5 -122l6 -1l671 903q-42 39 -100.5 60t-129.5 21q-162 0 -285 -127t-151 -320l-38 -256q-14 -86 -6.5 -158zM416 201q38 -31 88.5 -47.5t110.5 -16.5q173 0 300.5 126.5t157.5 322.5l38 256q11 76 5 142t-26 114l-6 1z" />
<glyph unicode="&#xd9;" horiz-adv-x="1358" d="M137 479l142 948h193l-142 -948q-25 -170 54.5 -259.5t228.5 -89.5q151 0 266.5 93.5t139.5 255.5l142 948h193l-142 -948q-36 -244 -206.5 -372t-414.5 -128q-224 0 -356.5 134t-97.5 366zM550 1825l3 5h226l134 -261h-155z" />
<glyph unicode="&#xda;" horiz-adv-x="1358" d="M137 479l142 948h193l-142 -948q-25 -170 54.5 -259.5t228.5 -89.5q151 0 266.5 93.5t139.5 255.5l142 948h193l-142 -948q-36 -244 -206.5 -372t-414.5 -128q-224 0 -356.5 134t-97.5 366zM748 1570l214 256h224l2 -6l-300 -255h-138z" />
<glyph unicode="&#xdb;" horiz-adv-x="1358" d="M137 479l142 948h193l-142 -948q-25 -170 54.5 -259.5t228.5 -89.5q151 0 266.5 93.5t139.5 255.5l142 948h193l-142 -948q-36 -244 -206.5 -372t-414.5 -128q-224 0 -356.5 134t-97.5 366zM540 1569l4 25l276 233h117l209 -234l-4 -24h-158l-122 145l-165 -145h-157z " />
<glyph unicode="&#xdc;" horiz-adv-x="1358" d="M137 479l142 948h193l-142 -948q-25 -170 54.5 -259.5t228.5 -89.5q151 0 266.5 93.5t139.5 255.5l142 948h193l-142 -948q-36 -244 -206.5 -372t-414.5 -128q-224 0 -356.5 134t-97.5 366zM496 1573l27 196h215l-28 -196h-214zM956 1573l28 196h214l-27 -196h-215z" />
<glyph unicode="&#xdd;" horiz-adv-x="1269" d="M174 1427h221l265 -725l480 725h220l-639 -925l-75 -502h-192l77 516zM698 1569l214 256h224l2 -6l-300 -255h-138z" />
<glyph unicode="&#xde;" horiz-adv-x="1184" d="M81 0l214 1427h193l-43 -287h264q218 0 332 -117t88 -300q-29 -193 -172.5 -304.5t-372.5 -111.5h-264l-46 -307h-193zM343 458h264q138 0 224 77t103 186q17 116 -43 192t-205 76h-264z" />
<glyph unicode="&#xdf;" horiz-adv-x="1196" d="M56 0l159 1060q34 227 165.5 345.5t313.5 118.5q152 0 240.5 -85.5t65.5 -246.5q-19 -123 -98 -228t-87 -159q-12 -86 137 -223t129 -272q-26 -170 -139 -250.5t-289 -80.5q-80 0 -165 20.5t-117 49.5l66 156q38 -28 98.5 -51.5t120.5 -23.5q101 0 160 47t71 123 q13 87 -136.5 225.5t-128.5 281.5q13 83 98 189t96 180q14 96 -27 146.5t-108 50.5q-98 0 -175 -82.5t-99 -230.5l-159 -1060h-192z" />
<glyph unicode="&#xe0;" horiz-adv-x="1103" d="M71 298q22 157 156.5 240t347.5 83h210l16 105q14 97 -34.5 149.5t-153.5 52.5q-89 0 -156.5 -47t-76.5 -113l-184 -2l-1 6q12 121 140.5 214.5t311.5 93.5q173 0 272 -92.5t75 -263.5l-77 -510q-10 -60 -11 -111.5t6 -102.5h-199q-2 55 -2 88.5t4 69.5 q-65 -76 -159.5 -127.5t-193.5 -51.5q-160 0 -237 86t-54 233zM263 294q-12 -74 25.5 -113.5t126.5 -39.5q99 0 193.5 55t130.5 123l26 172h-216q-113 0 -194.5 -60t-91.5 -137zM364 1509l3 5h226l134 -261h-155z" />
<glyph unicode="&#xe1;" horiz-adv-x="1103" d="M71 298q22 157 156.5 240t347.5 83h210l16 105q14 97 -34.5 149.5t-153.5 52.5q-89 0 -156.5 -47t-76.5 -113l-184 -2l-1 6q12 121 140.5 214.5t311.5 93.5q173 0 272 -92.5t75 -263.5l-77 -510q-10 -60 -11 -111.5t6 -102.5h-199q-2 55 -2 88.5t4 69.5 q-65 -76 -159.5 -127.5t-193.5 -51.5q-160 0 -237 86t-54 233zM263 294q-12 -74 25.5 -113.5t126.5 -39.5q99 0 193.5 55t130.5 123l26 172h-216q-113 0 -194.5 -60t-91.5 -137zM561 1255l214 256h224l2 -6l-300 -255h-138z" />
<glyph unicode="&#xe2;" horiz-adv-x="1103" d="M71 298q22 157 156.5 240t347.5 83h210l16 105q14 97 -34.5 149.5t-153.5 52.5q-89 0 -156.5 -47t-76.5 -113l-184 -2l-1 6q12 121 140.5 214.5t311.5 93.5q173 0 272 -92.5t75 -263.5l-77 -510q-10 -60 -11 -111.5t6 -102.5h-199q-2 55 -2 88.5t4 69.5 q-65 -76 -159.5 -127.5t-193.5 -51.5q-160 0 -237 86t-54 233zM263 294q-12 -74 25.5 -113.5t126.5 -39.5q99 0 193.5 55t130.5 123l26 172h-216q-113 0 -194.5 -60t-91.5 -137zM353 1253l4 25l276 233h117l209 -234l-4 -24h-158l-122 145l-165 -145h-157z" />
<glyph unicode="&#xe3;" horiz-adv-x="1103" d="M71 298q22 157 156.5 240t347.5 83h210l16 105q14 97 -34.5 149.5t-153.5 52.5q-89 0 -156.5 -47t-76.5 -113l-184 -2l-1 6q12 121 140.5 214.5t311.5 93.5q173 0 272 -92.5t75 -263.5l-77 -510q-10 -60 -11 -111.5t6 -102.5h-199q-2 55 -2 88.5t4 69.5 q-65 -76 -159.5 -127.5t-193.5 -51.5q-160 0 -237 86t-54 233zM263 294q-12 -74 25.5 -113.5t126.5 -39.5q99 0 193.5 55t130.5 123l26 172h-216q-113 0 -194.5 -60t-91.5 -137zM310 1280q12 94 79 159.5t157 65.5q51 0 128.5 -46t129.5 -46q38 0 72.5 31.5t41.5 78.5 l102 -32q-14 -95 -80.5 -157t-155.5 -62q-66 0 -136.5 45.5t-121.5 45.5q-40 0 -74 -32.5t-40 -76.5z" />
<glyph unicode="&#xe4;" horiz-adv-x="1103" d="M71 298q22 157 156.5 240t347.5 83h210l16 105q14 97 -34.5 149.5t-153.5 52.5q-89 0 -156.5 -47t-76.5 -113l-184 -2l-1 6q12 121 140.5 214.5t311.5 93.5q173 0 272 -92.5t75 -263.5l-77 -510q-10 -60 -11 -111.5t6 -102.5h-199q-2 55 -2 88.5t4 69.5 q-65 -76 -159.5 -127.5t-193.5 -51.5q-160 0 -237 86t-54 233zM263 294q-12 -74 25.5 -113.5t126.5 -39.5q99 0 193.5 55t130.5 123l26 172h-216q-113 0 -194.5 -60t-91.5 -137zM310 1257l27 196h215l-28 -196h-214zM770 1257l28 196h214l-27 -196h-215z" />
<glyph unicode="&#xe5;" horiz-adv-x="1103" d="M71 298q22 157 156.5 240t347.5 83h210l16 105q14 97 -34.5 149.5t-153.5 52.5q-89 0 -156.5 -47t-76.5 -113l-184 -2l-1 6q12 121 140.5 214.5t311.5 93.5q173 0 272 -92.5t75 -263.5l-77 -510q-10 -60 -11 -111.5t6 -102.5h-199q-2 55 -2 88.5t4 69.5 q-65 -76 -159.5 -127.5t-193.5 -51.5q-160 0 -237 86t-54 233zM263 294q-12 -74 25.5 -113.5t126.5 -39.5q99 0 193.5 55t130.5 123l26 172h-216q-113 0 -194.5 -60t-91.5 -137zM499 1384q11 73 68.5 119t129.5 46q68 0 111 -48t33 -117q-10 -75 -65.5 -118t-127.5 -43 q-69 0 -114 45t-35 116zM597 1384q-5 -32 14 -52.5t50 -20.5q29 0 53 20.5t29 52.5q5 33 -12 54t-47 21t-56 -22t-31 -53z" />
<glyph unicode="&#xe6;" horiz-adv-x="1753" d="M53 298q22 160 146 241t343 81h224l13 86q16 107 -26 164.5t-138 57.5q-97 0 -167 -54.5t-80 -129.5l-181 17l-2 6q16 140 140.5 226.5t312.5 86.5q106 0 186 -39.5t120 -114.5q72 74 164.5 114t194.5 40q202 0 299.5 -129t65.5 -349l-18 -117h-701q-20 -165 42.5 -260 t215.5 -95q97 0 170 28t154 76l45 -135q-59 -43 -156.5 -81.5t-234.5 -38.5q-129 0 -223.5 48.5t-148.5 139.5q-65 -79 -183 -133.5t-277 -54.5q-161 0 -242 86.5t-58 232.5zM245 294q-12 -75 30.5 -119.5t138.5 -44.5q71 0 159.5 44t139.5 98l32 209h-222 q-113 0 -190 -55.5t-88 -131.5zM980 633l2 -6h497l5 31q17 123 -30 196.5t-173 73.5q-106 0 -188 -84t-113 -211z" />
<glyph unicode="&#xe7;" horiz-adv-x="1050" d="M93 510l6 41q35 232 178 380.5t368 148.5q171 0 271 -111t72 -269l-2 -5h-177q15 101 -37 167t-150 66q-136 0 -221 -112t-108 -265l-6 -41q-25 -165 23 -272.5t193 -107.5q85 0 162 60t91 145h174l2 -6q-18 -143 -153.5 -246.5t-298.5 -103.5q-213 0 -316.5 153.5 t-70.5 377.5zM304 -435l9 107q68 0 116 24t56 72q7 49 -25 66.5t-117 24.5l51 132h137l-20 -51q62 -11 98 -51t25 -118q-15 -98 -100 -152t-230 -54z" />
<glyph unicode="&#xe8;" horiz-adv-x="1050" d="M93 510l7 43q34 237 186.5 382t345.5 145q205 0 295 -134.5t58 -349.5l-15 -102h-686q-22 -169 33.5 -266.5t202.5 -97.5q94 0 175 28.5t140 76.5l57 -125q-65 -55 -164 -93t-230 -38q-220 0 -330 148t-75 383zM320 652l2 -6h478l2 16q17 118 -28 192t-164 74 q-97 0 -176 -78.5t-114 -197.5zM348 1510l3 5h226l134 -261h-155z" />
<glyph unicode="&#xe9;" horiz-adv-x="1050" d="M93 510l7 43q34 237 186.5 382t345.5 145q205 0 295 -134.5t58 -349.5l-15 -102h-686q-22 -169 33.5 -266.5t202.5 -97.5q94 0 175 28.5t140 76.5l57 -125q-65 -55 -164 -93t-230 -38q-220 0 -330 148t-75 383zM320 652l2 -6h478l2 16q17 118 -28 192t-164 74 q-97 0 -176 -78.5t-114 -197.5zM547 1256l214 256h224l2 -6l-300 -255h-138z" />
<glyph unicode="&#xea;" horiz-adv-x="1050" d="M93 510l7 43q34 237 186.5 382t345.5 145q205 0 295 -134.5t58 -349.5l-15 -102h-686q-22 -169 33.5 -266.5t202.5 -97.5q94 0 175 28.5t140 76.5l57 -125q-65 -55 -164 -93t-230 -38q-220 0 -330 148t-75 383zM320 652l2 -6h478l2 16q17 118 -28 192t-164 74 q-97 0 -176 -78.5t-114 -197.5zM338 1254l4 25l276 233h117l209 -234l-4 -24h-158l-122 145l-165 -145h-157z" />
<glyph unicode="&#xeb;" horiz-adv-x="1050" d="M93 510l7 43q34 237 186.5 382t345.5 145q205 0 295 -134.5t58 -349.5l-15 -102h-686q-22 -169 33.5 -266.5t202.5 -97.5q94 0 175 28.5t140 76.5l57 -125q-65 -55 -164 -93t-230 -38q-220 0 -330 148t-75 383zM294 1258l27 196h215l-28 -196h-214zM320 652l2 -6h478 l2 16q17 118 -28 192t-164 74q-97 0 -176 -78.5t-114 -197.5zM754 1258l28 196h214l-27 -196h-215z" />
<glyph unicode="&#xec;" horiz-adv-x="504" d="M65 1489l3 5h226l134 -261h-155zM72 0l158 1060h193l-158 -1060h-193z" />
<glyph unicode="&#xed;" horiz-adv-x="504" d="M72 0l158 1060h193l-158 -1060h-193zM261 1234l214 256h224l2 -6l-300 -255h-138z" />
<glyph unicode="&#xee;" horiz-adv-x="504" d="M54 1233l4 25l276 233h117l209 -234l-4 -24h-158l-122 145l-165 -145h-157zM72 0l158 1060h193l-158 -1060h-193z" />
<glyph unicode="&#xef;" horiz-adv-x="504" d="M11 1237l27 196h215l-28 -196h-214zM72 0l158 1060h193l-158 -1060h-193zM471 1237l28 196h214l-27 -196h-215z" />
<glyph unicode="&#xf0;" horiz-adv-x="1177" d="M61 457q34 232 189 366.5t365 134.5q87 0 160.5 -38t116.5 -99l5 4q9 114 -19 201.5t-86 152.5l-313 -165l-60 100l269 141v6q-31 19 -69.5 35.5t-79.5 29.5l83 161q74 -19 140 -51.5t121 -77.5l232 123l60 -100l-208 -110q79 -102 109 -236.5t7 -294.5l-32 -216 q-38 -249 -199.5 -397t-375.5 -148q-205 0 -325.5 139t-89.5 339zM254 457q-21 -134 45 -230.5t204 -96.5q125 0 227 113t128 281l22 146q-24 58 -97.5 97.5t-190.5 39.5q-123 0 -220 -103t-118 -247z" />
<glyph unicode="&#xf1;" d="M62 0l158 1060h173l-9 -152q65 83 151.5 127.5t188.5 44.5q166 0 248 -101.5t50 -309.5l-100 -669h-193l100 665q22 145 -24 201.5t-162 56.5q-86 0 -155 -37.5t-116 -104.5l-117 -781h-193zM333 1280q12 94 79 159.5t157 65.5q51 0 128.5 -46t129.5 -46q38 0 72.5 31.5 t41.5 78.5l102 -32q-14 -95 -80.5 -157t-155.5 -62q-66 0 -136.5 45.5t-121.5 45.5q-40 0 -74 -32.5t-40 -76.5z" />
<glyph unicode="&#xf2;" d="M94 518l4 22q36 244 184.5 392t369.5 148q211 0 320.5 -153.5t75.5 -386.5l-4 -22q-38 -246 -186 -392.5t-369 -146.5q-212 0 -321 153t-74 386zM287 518q-26 -174 28.5 -281t196.5 -107q132 0 222.5 111.5t116.5 276.5l4 22q25 172 -30.5 280t-195.5 108 q-133 0 -223.5 -112t-114.5 -276zM390 1509l3 5h226l134 -261h-155z" />
<glyph unicode="&#xf3;" d="M94 518l4 22q36 244 184.5 392t369.5 148q211 0 320.5 -153.5t75.5 -386.5l-4 -22q-38 -246 -186 -392.5t-369 -146.5q-212 0 -321 153t-74 386zM287 518q-26 -174 28.5 -281t196.5 -107q132 0 222.5 111.5t116.5 276.5l4 22q25 172 -30.5 280t-195.5 108 q-133 0 -223.5 -112t-114.5 -276zM588 1255l214 256h224l2 -6l-300 -255h-138z" />
<glyph unicode="&#xf4;" d="M94 518l4 22q36 244 184.5 392t369.5 148q211 0 320.5 -153.5t75.5 -386.5l-4 -22q-38 -246 -186 -392.5t-369 -146.5q-212 0 -321 153t-74 386zM287 518q-26 -174 28.5 -281t196.5 -107q132 0 222.5 111.5t116.5 276.5l4 22q25 172 -30.5 280t-195.5 108 q-133 0 -223.5 -112t-114.5 -276zM380 1253l4 25l276 233h117l209 -234l-4 -24h-158l-122 145l-165 -145h-157z" />
<glyph unicode="&#xf5;" d="M94 518l4 22q36 244 184.5 392t369.5 148q211 0 320.5 -153.5t75.5 -386.5l-4 -22q-38 -246 -186 -392.5t-369 -146.5q-212 0 -321 153t-74 386zM287 518q-26 -174 28.5 -281t196.5 -107q132 0 222.5 111.5t116.5 276.5l4 22q25 172 -30.5 280t-195.5 108 q-133 0 -223.5 -112t-114.5 -276zM337 1280q12 94 79 159.5t157 65.5q51 0 128.5 -46t129.5 -46q38 0 72.5 31.5t41.5 78.5l102 -32q-14 -95 -80.5 -157t-155.5 -62q-66 0 -136.5 45.5t-121.5 45.5q-40 0 -74 -32.5t-40 -76.5z" />
<glyph unicode="&#xf6;" d="M94 518l4 22q36 244 184.5 392t369.5 148q211 0 320.5 -153.5t75.5 -386.5l-4 -22q-38 -246 -186 -392.5t-369 -146.5q-212 0 -321 153t-74 386zM287 518q-26 -174 28.5 -281t196.5 -107q132 0 222.5 111.5t116.5 276.5l4 22q25 172 -30.5 280t-195.5 108 q-133 0 -223.5 -112t-114.5 -276zM337 1257l27 196h215l-28 -196h-214zM797 1257l28 196h214l-27 -196h-215z" />
<glyph unicode="&#xf7;" horiz-adv-x="1146" d="M79 585l28 184h978l-28 -184h-978zM411 176l29 199h194l-29 -199h-194zM531 979l30 199h194l-30 -199h-194z" />
<glyph unicode="&#xf8;" d="M94 -132l130 203q-83 71 -117 187.5t-13 259.5l4 22q36 244 184.5 392t369.5 148q54 0 102.5 -11.5t91.5 -32.5l95 149h126l-135 -211q74 -73 104.5 -186.5t11.5 -247.5l-4 -22q-38 -246 -186 -392.5t-369 -146.5q-48 0 -91.5 9t-82.5 26l-95 -146h-126zM281.5 352 q8.5 -74 40.5 -119l6 -2l427 665q-27 15 -58 23.5t-68 8.5q-133 0 -223.5 -112t-114.5 -276l-4 -22q-14 -92 -5.5 -166zM404 152q21 -11 48.5 -16.5t59.5 -5.5q132 0 222.5 111.5t116.5 276.5l4 22q11 82 5 151t-31 114l-6 1z" />
<glyph unicode="&#xf9;" d="M123 435l94 625h193l-94 -627q-27 -175 13 -236t148 -61q101 0 175.5 43.5t121.5 123.5l113 757h193l-159 -1060h-173l11 152q-63 -84 -148 -128.5t-189 -44.5q-167 0 -250.5 112.5t-48.5 343.5zM386 1489l3 5h226l134 -261h-155z" />
<glyph unicode="&#xfa;" d="M123 435l94 625h193l-94 -627q-27 -175 13 -236t148 -61q101 0 175.5 43.5t121.5 123.5l113 757h193l-159 -1060h-173l11 152q-63 -84 -148 -128.5t-189 -44.5q-167 0 -250.5 112.5t-48.5 343.5zM583 1234l214 256h224l2 -6l-300 -255h-138z" />
<glyph unicode="&#xfb;" d="M123 435l94 625h193l-94 -627q-27 -175 13 -236t148 -61q101 0 175.5 43.5t121.5 123.5l113 757h193l-159 -1060h-173l11 152q-63 -84 -148 -128.5t-189 -44.5q-167 0 -250.5 112.5t-48.5 343.5zM375 1233l4 25l276 233h117l209 -234l-4 -24h-158l-122 145l-165 -145 h-157z" />
<glyph unicode="&#xfc;" d="M123 435l94 625h193l-94 -627q-27 -175 13 -236t148 -61q101 0 175.5 43.5t121.5 123.5l113 757h193l-159 -1060h-173l11 152q-63 -84 -148 -128.5t-189 -44.5q-167 0 -250.5 112.5t-48.5 343.5zM332 1237l27 196h215l-28 -196h-214zM792 1237l28 196h214l-27 -196h-215z " />
<glyph unicode="&#xfd;" horiz-adv-x="1009" d="M-39 -413l42 152q-3 1 35.5 -2t49.5 -3q59 0 109.5 57.5t83.5 119.5l64 111l-239 1038h215l124 -667l15 -133l6 -1l380 801h214l-629 -1223q-57 -107 -143.5 -186t-213.5 -79q-23 0 -58.5 5.5t-54.5 9.5zM518 1234l214 256h224l2 -6l-300 -255h-138z" />
<glyph unicode="&#xfe;" horiz-adv-x="1162" d="M11 -408l61 408l64 431l94 629l71 469h193l-88 -585q61 66 140 101t175 35q189 0 278.5 -158.5t52.5 -410.5l-3 -21q-37 -238 -165.5 -374.5t-323.5 -136.5q-95 0 -165 35t-113 103l-17 -117l-61 -408h-193zM305 270q27 -66 80 -103t138 -37q132 0 220.5 101.5 t112.5 258.5l2 21q29 187 -25 299.5t-193 112.5q-80 0 -145.5 -38.5t-113.5 -105.5l-25 -172z" />
<glyph unicode="&#xff;" horiz-adv-x="1009" d="M-39 -413l42 152q-3 1 35.5 -2t49.5 -3q59 0 109.5 57.5t83.5 119.5l64 111l-239 1038h215l124 -667l15 -133l6 -1l380 801h214l-629 -1223q-57 -107 -143.5 -186t-213.5 -79q-23 0 -58.5 5.5t-54.5 9.5zM267 1237l27 196h215l-28 -196h-214zM727 1237l28 196h214 l-27 -196h-215z" />
<glyph unicode="&#x152;" horiz-adv-x="1920" d="M108 564l45 298q40 270 214 427.5t421 157.5q66 0 137 -5.5t144 -14.5h821l-22 -152h-676l-69 -462h587l-23 -151h-586l-77 -511h686l-22 -151h-832q-91 -10 -156 -15.5t-131 -5.5q-235 0 -367.5 164.5t-93.5 420.5zM301 564q-32 -217 45 -325t246 -108q59 0 120 4.5 t119 14.5l169 1127q-56 9 -115 14t-121 5q-159 0 -273 -112.5t-145 -319.5z" />
<glyph unicode="&#x153;" horiz-adv-x="1816" d="M94 518l4 22q36 244 184.5 392t369.5 148q119 0 209.5 -53t140.5 -147q75 95 178.5 147.5t215.5 52.5q205 0 295.5 -134.5t57.5 -349.5l-14 -102h-686q-23 -169 33 -266.5t203 -97.5q94 0 175 28.5t139 76.5l57 -125q-64 -55 -163 -93t-231 -38q-126 0 -217.5 51 t-141.5 144q-76 -94 -181.5 -144.5t-232.5 -50.5q-212 0 -321 153t-74 386zM287 518q-26 -174 28.5 -281t196.5 -107q132 0 222.5 111.5t116.5 276.5l4 22q25 172 -30.5 280t-195.5 108q-133 0 -223.5 -112t-114.5 -276zM1085 652l2 -6h477l2 16q18 118 -27 192t-165 74 q-97 0 -176 -78.5t-113 -197.5z" />
<glyph unicode="&#x178;" horiz-adv-x="1269" d="M174 1427h221l265 -725l480 725h220l-639 -925l-75 -502h-192l77 516zM446 1572l27 196h215l-28 -196h-214zM906 1572l28 196h214l-27 -196h-215z" />
<glyph unicode="&#x2c6;" horiz-adv-x="959" d="M273 1227l4 25l276 233h117l209 -234l-4 -24h-158l-122 145l-165 -145h-157z" />
<glyph unicode="&#x2dc;" horiz-adv-x="959" d="M234 1250q12 94 79 159.5t157 65.5q51 0 128.5 -46t129.5 -46q38 0 72.5 31.5t41.5 78.5l102 -32q-14 -95 -80.5 -157t-155.5 -62q-66 0 -136.5 45.5t-121.5 45.5q-40 0 -74 -32.5t-40 -76.5z" />
<glyph unicode="&#x2000;" horiz-adv-x="932" />
<glyph unicode="&#x2001;" horiz-adv-x="1864" />
<glyph unicode="&#x2002;" horiz-adv-x="932" />
<glyph unicode="&#x2003;" horiz-adv-x="1864" />
<glyph unicode="&#x2004;" horiz-adv-x="621" />
<glyph unicode="&#x2005;" horiz-adv-x="466" />
<glyph unicode="&#x2006;" horiz-adv-x="310" />
<glyph unicode="&#x2007;" horiz-adv-x="310" />
<glyph unicode="&#x2008;" horiz-adv-x="233" />
<glyph unicode="&#x2009;" horiz-adv-x="372" />
<glyph unicode="&#x200a;" horiz-adv-x="103" />
<glyph unicode="&#x2010;" horiz-adv-x="904" d="M165 527l22 151h578l-22 -151h-578z" />
<glyph unicode="&#x2011;" horiz-adv-x="904" d="M165 527l22 151h578l-22 -151h-578z" />
<glyph unicode="&#x2012;" horiz-adv-x="904" d="M165 527l22 151h578l-22 -151h-578z" />
<glyph unicode="&#x2013;" horiz-adv-x="1387" d="M185 635l30 152h1064l-29 -152h-1065z" />
<glyph unicode="&#x2014;" horiz-adv-x="1626" d="M163 635l36 152h1309l-35 -152h-1310z" />
<glyph unicode="&#x2018;" horiz-adv-x="513" d="M199 899l26 180l151 348h95l-54 -354l-25 -174h-193z" />
<glyph unicode="&#x2019;" horiz-adv-x="505" d="M214 899l51 336l28 192h193l-28 -189l-149 -339h-95z" />
<glyph unicode="&#x201a;" horiz-adv-x="529" d="M49 -250l39 258l35 236h194l-33 -219l-140 -275h-95z" />
<glyph unicode="&#x201c;" horiz-adv-x="772" d="M177 899l26 180l151 348h95l-54 -354l-25 -174h-193zM499 899l26 180l151 348h95l-54 -354l-25 -174h-193z" />
<glyph unicode="&#x201d;" horiz-adv-x="753" d="M180 899l51 336l28 192h193l-28 -189l-149 -339h-95zM509 899l51 336l28 192h193l-28 -189l-149 -339h-95z" />
<glyph unicode="&#x201e;" horiz-adv-x="751" d="M22 -234l49 318l28 190h193l-27 -180l-148 -328h-95zM323 -234l50 326l28 182h193l-28 -180l-148 -328h-95z" />
<glyph unicode="&#x2022;" horiz-adv-x="681" d="M164 718l8 59q13 89 76 142.5t156 53.5q90 0 138 -55.5t36 -140.5l-9 -59q-13 -90 -75.5 -142t-156.5 -52q-89 0 -137.5 54t-35.5 140z" />
<glyph unicode="&#x2026;" horiz-adv-x="1352" d="M79 0l30 198h193l-30 -198h-193zM513 0l30 198h193l-30 -198h-193zM925 0l30 198h193l-30 -198h-193z" />
<glyph unicode="&#x202f;" horiz-adv-x="372" />
<glyph unicode="&#x2039;" horiz-adv-x="602" d="M107 530l1 6l1 7l1 6l346 381h145l-309 -391l192 -390h-145z" />
<glyph unicode="&#x203a;" horiz-adv-x="602" d="M39 167l282 372l-170 372h145l219 -349h5v-8l4 -6l-3 -9v-9l-6 -6l-1 -7h-4l-326 -350h-145z" />
<glyph unicode="&#x205f;" horiz-adv-x="466" />
<glyph unicode="&#x20ac;" horiz-adv-x="1066" d="M74 502l18 121h143l25 163h-143l18 122h142l3 15q38 248 196 386t387 138q56 0 113.5 -7.5t119.5 -22.5l-42 -156q-51 16 -105 25.5t-109 9.5q-138 0 -239.5 -102t-126.5 -269l-3 -17h483l-19 -122h-482l-25 -163h482l-17 -121h-483q-27 -177 42.5 -274.5t214.5 -97.5 q54 0 111.5 8.5t110.5 25.5l-4 -154q-58 -15 -119 -23t-121 -8q-218 0 -340.5 143t-86.5 380h-144z" />
<glyph unicode="&#x2122;" horiz-adv-x="1258" d="M224 1347l12 80h376l-11 -80h-142l-67 -446h-92l67 446h-143zM611 901l78 526h114l101 -381l5 -1l216 382h108l-79 -526h-91l50 335l-6 2l-197 -337h-50l-100 350h-6l-52 -350h-91z" />
<glyph unicode="&#x25fc;" horiz-adv-x="1058" d="M0 0v1058h1058v-1058h-1058z" />
<glyph unicode="&#xfb02;" horiz-adv-x="1166" d="M114 917l21 143h166l20 135q27 176 128 265t261 89q33 0 67 -5.5t73 -14.5l-45 -147q-18 4 -43 7t-52 3q-81 0 -131.5 -51.5t-64.5 -145.5l-20 -135h192l-22 -143h-192l-137 -917h-193l137 917h-165zM738 0l230 1529h193l-230 -1529h-193z" />
<glyph unicode="&#xfb03;" horiz-adv-x="1777" d="M114 917l21 143h166l20 135q27 176 128 265t261 89q33 0 67 -5.5t73 -14.5l-45 -147q-18 4 -43 7t-52 3q-81 0 -131.5 -51.5t-64.5 -145.5l-20 -135h192l-22 -143h-192l-137 -917h-193l137 917h-165zM747 917l22 143h166l18 115q27 185 145 279.5t305 94.5 q63 0 127 -15.5t143 -43.5l-56 -157q-50 20 -106 35t-118 15q-111 0 -171.5 -52t-75.5 -156l-18 -115h211l-21 -143h-211l-137 -917h-193l137 917h-167zM1350 0l159 1060h194l-159 -1060h-194z" />
<glyph unicode="&#xfb04;" horiz-adv-x="1826" d="M114 917l21 143h166l20 135q27 176 128 265t261 89q33 0 67 -5.5t73 -14.5l-45 -147q-18 4 -43 7t-52 3q-81 0 -131.5 -51.5t-64.5 -145.5l-20 -135h192l-22 -143h-192l-137 -917h-193l137 917h-165zM775 917l21 143h166l20 135q27 176 128 265t261 89q33 0 67 -5.5 t73 -14.5l-45 -147q-18 4 -43 7t-52 3q-81 0 -131.5 -51.5t-64.5 -145.5l-20 -135h192l-22 -143h-192l-137 -917h-193l137 917h-165zM1398 0l230 1529h193l-230 -1529h-193z" />
<hkern u1="&#x22;" u2="w" k="-11" />
<hkern u1="&#x27;" u2="w" k="-11" />
<hkern u1="&#x28;" u2="&#x178;" k="-22" />
<hkern u1="&#x28;" u2="&#xdd;" k="-22" />
<hkern u1="&#x28;" u2="Y" k="-22" />
<hkern u1="&#x28;" u2="W" k="-18" />
<hkern u1="&#x28;" u2="V" k="-20" />
<hkern u1="A" u2="w" k="33" />
<hkern u1="A" u2="t" k="17" />
<hkern u1="A" u2="&#x3f;" k="61" />
<hkern u1="C" u2="&#x7d;" k="17" />
<hkern u1="C" u2="]" k="12" />
<hkern u1="C" u2="&#x29;" k="26" />
<hkern u1="D" u2="&#xc6;" k="33" />
<hkern u1="E" u2="w" k="22" />
<hkern u1="E" u2="f" k="18" />
<hkern u1="F" u2="&#x2026;" k="234" />
<hkern u1="F" u2="&#x201e;" k="234" />
<hkern u1="F" u2="&#x201a;" k="234" />
<hkern u1="F" u2="&#x153;" k="21" />
<hkern u1="F" u2="&#xff;" k="24" />
<hkern u1="F" u2="&#xfd;" k="24" />
<hkern u1="F" u2="&#xfc;" k="22" />
<hkern u1="F" u2="&#xfb;" k="22" />
<hkern u1="F" u2="&#xfa;" k="22" />
<hkern u1="F" u2="&#xf9;" k="22" />
<hkern u1="F" u2="&#xf6;" k="21" />
<hkern u1="F" u2="&#xf5;" k="21" />
<hkern u1="F" u2="&#xf4;" k="21" />
<hkern u1="F" u2="&#xf3;" k="21" />
<hkern u1="F" u2="&#xf2;" k="21" />
<hkern u1="F" u2="&#xeb;" k="21" />
<hkern u1="F" u2="&#xea;" k="21" />
<hkern u1="F" u2="&#xe9;" k="21" />
<hkern u1="F" u2="&#xe8;" k="21" />
<hkern u1="F" u2="&#xe7;" k="21" />
<hkern u1="F" u2="&#xe5;" k="34" />
<hkern u1="F" u2="&#xe4;" k="34" />
<hkern u1="F" u2="&#xe3;" k="34" />
<hkern u1="F" u2="&#xe2;" k="34" />
<hkern u1="F" u2="&#xe1;" k="34" />
<hkern u1="F" u2="&#xe0;" k="34" />
<hkern u1="F" u2="&#xc5;" k="59" />
<hkern u1="F" u2="&#xc4;" k="59" />
<hkern u1="F" u2="&#xc3;" k="59" />
<hkern u1="F" u2="&#xc2;" k="59" />
<hkern u1="F" u2="&#xc1;" k="59" />
<hkern u1="F" u2="&#xc0;" k="59" />
<hkern u1="F" u2="y" k="24" />
<hkern u1="F" u2="v" k="24" />
<hkern u1="F" u2="u" k="22" />
<hkern u1="F" u2="r" k="26" />
<hkern u1="F" u2="q" k="21" />
<hkern u1="F" u2="o" k="21" />
<hkern u1="F" u2="g" k="21" />
<hkern u1="F" u2="e" k="21" />
<hkern u1="F" u2="d" k="21" />
<hkern u1="F" u2="c" k="21" />
<hkern u1="F" u2="a" k="34" />
<hkern u1="F" u2="A" k="59" />
<hkern u1="F" u2="&#x3a;" k="234" />
<hkern u1="F" u2="&#x2e;" k="234" />
<hkern u1="F" u2="&#x2c;" k="234" />
<hkern u1="K" u2="w" k="63" />
<hkern u1="L" u2="w" k="92" />
<hkern u1="O" u2="&#xc6;" k="33" />
<hkern u1="P" u2="&#xc6;" k="97" />
<hkern u1="P" u2="t" k="-14" />
<hkern u1="Q" u2="&#x178;" k="35" />
<hkern u1="Q" u2="&#xdd;" k="35" />
<hkern u1="Q" u2="Y" k="35" />
<hkern u1="Q" u2="W" k="20" />
<hkern u1="Q" u2="V" k="28" />
<hkern u1="Q" u2="T" k="43" />
<hkern u1="R" u2="&#x178;" k="48" />
<hkern u1="R" u2="&#xdd;" k="48" />
<hkern u1="R" u2="Y" k="48" />
<hkern u1="R" u2="V" k="19" />
<hkern u1="R" u2="T" k="80" />
<hkern u1="T" u2="&#xf8;" k="95" />
<hkern u1="T" u2="&#xe6;" k="114" />
<hkern u1="T" u2="&#xc6;" k="179" />
<hkern u1="T" u2="&#xbb;" k="216" />
<hkern u1="T" u2="&#xab;" k="328" />
<hkern u1="T" u2="w" k="57" />
<hkern u1="T" u2="r" k="75" />
<hkern u1="V" u2="&#x7d;" k="-19" />
<hkern u1="V" u2="r" k="30" />
<hkern u1="V" u2="]" k="-17" />
<hkern u1="V" u2="&#x29;" k="-20" />
<hkern u1="W" u2="&#x7d;" k="-14" />
<hkern u1="W" u2="r" k="21" />
<hkern u1="W" u2="]" k="-12" />
<hkern u1="W" u2="&#x29;" k="-15" />
<hkern u1="Y" u2="&#x2022;" k="45" />
<hkern u1="Y" u2="&#xf8;" k="64" />
<hkern u1="Y" u2="&#xe6;" k="63" />
<hkern u1="Y" u2="&#xc6;" k="96" />
<hkern u1="Y" u2="&#xbb;" k="51" />
<hkern u1="Y" u2="&#xab;" k="82" />
<hkern u1="Y" u2="&#x7d;" k="-19" />
<hkern u1="Y" u2="t" k="22" />
<hkern u1="Y" u2="r" k="40" />
<hkern u1="Y" u2="f" k="22" />
<hkern u1="Y" u2="]" k="-18" />
<hkern u1="Y" u2="&#x2a;" k="49" />
<hkern u1="Y" u2="&#x29;" k="-20" />
<hkern u1="Y" u2="&#x26;" k="30" />
<hkern u1="Z" u2="w" k="27" />
<hkern u1="[" u2="&#xdc;" k="18" />
<hkern u1="[" u2="&#xdb;" k="18" />
<hkern u1="[" u2="&#xda;" k="18" />
<hkern u1="[" u2="&#xd9;" k="18" />
<hkern u1="[" u2="U" k="18" />
<hkern u1="[" u2="J" k="18" />
<hkern u1="f" u2="&#x201d;" k="-16" />
<hkern u1="f" u2="&#x201c;" k="-16" />
<hkern u1="f" u2="&#x2019;" k="-16" />
<hkern u1="f" u2="&#x2018;" k="-16" />
<hkern u1="f" u2="&#x153;" k="24" />
<hkern u1="f" u2="&#xeb;" k="24" />
<hkern u1="f" u2="&#xea;" k="24" />
<hkern u1="f" u2="&#xe9;" k="24" />
<hkern u1="f" u2="&#xe8;" k="24" />
<hkern u1="f" u2="&#xe7;" k="24" />
<hkern u1="f" u2="&#x7d;" k="-19" />
<hkern u1="f" u2="q" k="24" />
<hkern u1="f" u2="g" k="24" />
<hkern u1="f" u2="e" k="24" />
<hkern u1="f" u2="d" k="24" />
<hkern u1="f" u2="c" k="24" />
<hkern u1="f" u2="]" k="-18" />
<hkern u1="f" u2="&#x29;" k="-20" />
<hkern u1="f" u2="&#x27;" k="-16" />
<hkern u1="f" u2="&#x22;" k="-16" />
<hkern u1="k" u2="&#x153;" k="20" />
<hkern u1="k" u2="&#xeb;" k="20" />
<hkern u1="k" u2="&#xea;" k="20" />
<hkern u1="k" u2="&#xe9;" k="20" />
<hkern u1="k" u2="&#xe8;" k="20" />
<hkern u1="k" u2="&#xe7;" k="20" />
<hkern u1="k" u2="q" k="20" />
<hkern u1="k" u2="g" k="20" />
<hkern u1="k" u2="e" k="20" />
<hkern u1="k" u2="d" k="20" />
<hkern u1="k" u2="c" k="20" />
<hkern u1="r" u2="w" k="-17" />
<hkern u1="r" u2="t" k="-17" />
<hkern u1="r" u2="f" k="-15" />
<hkern u1="v" u2="f" k="-13" />
<hkern u1="w" u2="&#x2026;" k="124" />
<hkern u1="w" u2="&#x201e;" k="124" />
<hkern u1="w" u2="&#x201a;" k="124" />
<hkern u1="w" u2="&#x3a;" k="124" />
<hkern u1="w" u2="&#x2e;" k="124" />
<hkern u1="w" u2="&#x2c;" k="124" />
<hkern u1="y" u2="f" k="-13" />
<hkern u1="&#x7b;" u2="&#xdc;" k="20" />
<hkern u1="&#x7b;" u2="&#xdb;" k="20" />
<hkern u1="&#x7b;" u2="&#xda;" k="20" />
<hkern u1="&#x7b;" u2="&#xd9;" k="20" />
<hkern u1="&#x7b;" u2="U" k="20" />
<hkern u1="&#x7b;" u2="J" k="20" />
<hkern u1="&#xc0;" u2="w" k="33" />
<hkern u1="&#xc0;" u2="t" k="17" />
<hkern u1="&#xc0;" u2="&#x3f;" k="61" />
<hkern u1="&#xc1;" u2="w" k="33" />
<hkern u1="&#xc1;" u2="t" k="17" />
<hkern u1="&#xc1;" u2="&#x3f;" k="61" />
<hkern u1="&#xc2;" u2="w" k="33" />
<hkern u1="&#xc2;" u2="t" k="17" />
<hkern u1="&#xc2;" u2="&#x3f;" k="61" />
<hkern u1="&#xc3;" u2="w" k="33" />
<hkern u1="&#xc3;" u2="t" k="17" />
<hkern u1="&#xc3;" u2="&#x3f;" k="61" />
<hkern u1="&#xc4;" u2="w" k="33" />
<hkern u1="&#xc4;" u2="t" k="17" />
<hkern u1="&#xc4;" u2="&#x3f;" k="61" />
<hkern u1="&#xc5;" u2="w" k="33" />
<hkern u1="&#xc5;" u2="t" k="17" />
<hkern u1="&#xc5;" u2="&#x3f;" k="61" />
<hkern u1="&#xc7;" u2="&#x7d;" k="17" />
<hkern u1="&#xc7;" u2="]" k="12" />
<hkern u1="&#xc7;" u2="&#x29;" k="26" />
<hkern u1="&#xc8;" u2="w" k="22" />
<hkern u1="&#xc8;" u2="f" k="18" />
<hkern u1="&#xc9;" u2="w" k="22" />
<hkern u1="&#xc9;" u2="f" k="18" />
<hkern u1="&#xca;" u2="w" k="22" />
<hkern u1="&#xca;" u2="f" k="18" />
<hkern u1="&#xcb;" u2="w" k="22" />
<hkern u1="&#xcb;" u2="f" k="18" />
<hkern u1="&#xd0;" u2="&#xc6;" k="33" />
<hkern u1="&#xd2;" u2="&#xc6;" k="33" />
<hkern u1="&#xd3;" u2="&#xc6;" k="33" />
<hkern u1="&#xd4;" u2="&#xc6;" k="33" />
<hkern u1="&#xd5;" u2="&#xc6;" k="33" />
<hkern u1="&#xd6;" u2="&#xc6;" k="33" />
<hkern u1="&#xdd;" u2="&#x2022;" k="45" />
<hkern u1="&#xdd;" u2="&#xf8;" k="64" />
<hkern u1="&#xdd;" u2="&#xe6;" k="63" />
<hkern u1="&#xdd;" u2="&#xc6;" k="96" />
<hkern u1="&#xdd;" u2="&#xbb;" k="51" />
<hkern u1="&#xdd;" u2="&#xab;" k="82" />
<hkern u1="&#xdd;" u2="&#x7d;" k="-19" />
<hkern u1="&#xdd;" u2="t" k="22" />
<hkern u1="&#xdd;" u2="r" k="40" />
<hkern u1="&#xdd;" u2="f" k="22" />
<hkern u1="&#xdd;" u2="]" k="-18" />
<hkern u1="&#xdd;" u2="&#x2a;" k="49" />
<hkern u1="&#xdd;" u2="&#x29;" k="-20" />
<hkern u1="&#xdd;" u2="&#x26;" k="30" />
<hkern u1="&#xfd;" u2="f" k="-13" />
<hkern u1="&#xff;" u2="f" k="-13" />
<hkern u1="&#x178;" u2="&#x2022;" k="45" />
<hkern u1="&#x178;" u2="&#xf8;" k="64" />
<hkern u1="&#x178;" u2="&#xe6;" k="63" />
<hkern u1="&#x178;" u2="&#xc6;" k="96" />
<hkern u1="&#x178;" u2="&#xbb;" k="51" />
<hkern u1="&#x178;" u2="&#xab;" k="82" />
<hkern u1="&#x178;" u2="&#x7d;" k="-19" />
<hkern u1="&#x178;" u2="t" k="22" />
<hkern u1="&#x178;" u2="r" k="40" />
<hkern u1="&#x178;" u2="f" k="22" />
<hkern u1="&#x178;" u2="]" k="-18" />
<hkern u1="&#x178;" u2="&#x2a;" k="49" />
<hkern u1="&#x178;" u2="&#x29;" k="-20" />
<hkern u1="&#x178;" u2="&#x26;" k="30" />
<hkern u1="&#x2018;" u2="w" k="-11" />
<hkern u1="&#x2019;" u2="w" k="-11" />
<hkern u1="&#x201c;" u2="w" k="-11" />
<hkern u1="&#x201d;" u2="w" k="-11" />
<hkern g1="B" 	g2="T" 	k="27" />
<hkern g1="B" 	g2="V" 	k="24" />
<hkern g1="B" 	g2="Y,Yacute,Ydieresis" 	k="55" />
<hkern g1="H,I,M,N,Igrave,Iacute,Icircumflex,Idieresis,Ntilde" 	g2="T" 	k="29" />
<hkern g1="H,I,M,N,Igrave,Iacute,Icircumflex,Idieresis,Ntilde" 	g2="Y,Yacute,Ydieresis" 	k="28" />
<hkern g1="H,I,M,N,Igrave,Iacute,Icircumflex,Idieresis,Ntilde" 	g2="A,Agrave,Aacute,Acircumflex,Atilde,Adieresis,Aring" 	k="-18" />
<hkern g1="H,I,M,N,Igrave,Iacute,Icircumflex,Idieresis,Ntilde" 	g2="X" 	k="-17" />
<hkern g1="D,O,Eth,Ograve,Oacute,Ocircumflex,Otilde,Odieresis" 	g2="T" 	k="27" />
<hkern g1="D,O,Eth,Ograve,Oacute,Ocircumflex,Otilde,Odieresis" 	g2="V" 	k="22" />
<hkern g1="D,O,Eth,Ograve,Oacute,Ocircumflex,Otilde,Odieresis" 	g2="Y,Yacute,Ydieresis" 	k="43" />
<hkern g1="D,O,Eth,Ograve,Oacute,Ocircumflex,Otilde,Odieresis" 	g2="A,Agrave,Aacute,Acircumflex,Atilde,Adieresis,Aring" 	k="21" />
<hkern g1="D,O,Eth,Ograve,Oacute,Ocircumflex,Otilde,Odieresis" 	g2="X" 	k="22" />
<hkern g1="D,O,Eth,Ograve,Oacute,Ocircumflex,Otilde,Odieresis" 	g2="comma,period,colon,quotesinglbase,quotedblbase,ellipsis" 	k="102" />
<hkern g1="D,O,Eth,Ograve,Oacute,Ocircumflex,Otilde,Odieresis" 	g2="Z" 	k="23" />
<hkern g1="C,Ccedilla" 	g2="T" 	k="29" />
<hkern g1="E,Egrave,Eacute,Ecircumflex,Edieresis" 	g2="v,y,yacute,ydieresis" 	k="26" />
<hkern g1="E,Egrave,Eacute,Ecircumflex,Edieresis" 	g2="o,ograve,oacute,ocircumflex,otilde,odieresis" 	k="19" />
<hkern g1="E,Egrave,Eacute,Ecircumflex,Edieresis" 	g2="u,ugrave,uacute,ucircumflex,udieresis" 	k="17" />
<hkern g1="E,Egrave,Eacute,Ecircumflex,Edieresis" 	g2="c,d,e,g,q,ccedilla,egrave,eacute,ecircumflex,edieresis,oe" 	k="19" />
<hkern g1="T" 	g2="v,y,yacute,ydieresis" 	k="72" />
<hkern g1="T" 	g2="C,G,O,Q,Ccedilla,Ograve,Oacute,Ocircumflex,Otilde,Odieresis,Oslash,OE" 	k="28" />
<hkern g1="T" 	g2="o,ograve,oacute,ocircumflex,otilde,odieresis" 	k="99" />
<hkern g1="T" 	g2="W" 	k="-15" />
<hkern g1="T" 	g2="T" 	k="-16" />
<hkern g1="T" 	g2="u,ugrave,uacute,ucircumflex,udieresis" 	k="95" />
<hkern g1="T" 	g2="z" 	k="60" />
<hkern g1="T" 	g2="V" 	k="-16" />
<hkern g1="T" 	g2="Y,Yacute,Ydieresis" 	k="-16" />
<hkern g1="T" 	g2="A,Agrave,Aacute,Acircumflex,Atilde,Adieresis,Aring" 	k="79" />
<hkern g1="T" 	g2="comma,period,colon,quotesinglbase,quotedblbase,ellipsis" 	k="218" />
<hkern g1="T" 	g2="c,d,e,g,q,ccedilla,egrave,eacute,ecircumflex,edieresis,oe" 	k="99" />
<hkern g1="T" 	g2="x" 	k="77" />
<hkern g1="T" 	g2="hyphen,uni00AD,endash,emdash" 	k="232" />
<hkern g1="T" 	g2="m,n,p,ntilde" 	k="109" />
<hkern g1="T" 	g2="S" 	k="16" />
<hkern g1="T" 	g2="a,agrave,aacute,acircumflex,atilde,adieresis,aring" 	k="113" />
<hkern g1="T" 	g2="s" 	k="116" />
<hkern g1="K" 	g2="v,y,yacute,ydieresis" 	k="40" />
<hkern g1="K" 	g2="C,G,O,Q,Ccedilla,Ograve,Oacute,Ocircumflex,Otilde,Odieresis,Oslash,OE" 	k="31" />
<hkern g1="K" 	g2="o,ograve,oacute,ocircumflex,otilde,odieresis" 	k="27" />
<hkern g1="K" 	g2="u,ugrave,uacute,ucircumflex,udieresis" 	k="23" />
<hkern g1="K" 	g2="c,d,e,g,q,ccedilla,egrave,eacute,ecircumflex,edieresis,oe" 	k="26" />
<hkern g1="K" 	g2="hyphen,uni00AD,endash,emdash" 	k="64" />
<hkern g1="K" 	g2="m,n,p,ntilde" 	k="23" />
<hkern g1="L" 	g2="v,y,yacute,ydieresis" 	k="133" />
<hkern g1="L" 	g2="C,G,O,Q,Ccedilla,Ograve,Oacute,Ocircumflex,Otilde,Odieresis,Oslash,OE" 	k="65" />
<hkern g1="L" 	g2="U,Ugrave,Uacute,Ucircumflex,Udieresis" 	k="54" />
<hkern g1="L" 	g2="quotedbl,quotesingle,quoteleft,quoteright,quotedblleft,quotedblright" 	k="138" />
<hkern g1="L" 	g2="W" 	k="143" />
<hkern g1="L" 	g2="T" 	k="275" />
<hkern g1="L" 	g2="u,ugrave,uacute,ucircumflex,udieresis" 	k="44" />
<hkern g1="L" 	g2="V" 	k="175" />
<hkern g1="L" 	g2="Y,Yacute,Ydieresis" 	k="239" />
<hkern g1="L" 	g2="A,Agrave,Aacute,Acircumflex,Atilde,Adieresis,Aring" 	k="-19" />
<hkern g1="P" 	g2="v,y,yacute,ydieresis" 	k="-15" />
<hkern g1="P" 	g2="o,ograve,oacute,ocircumflex,otilde,odieresis" 	k="13" />
<hkern g1="P" 	g2="A,Agrave,Aacute,Acircumflex,Atilde,Adieresis,Aring" 	k="138" />
<hkern g1="P" 	g2="X" 	k="31" />
<hkern g1="P" 	g2="comma,period,colon,quotesinglbase,quotedblbase,ellipsis" 	k="324" />
<hkern g1="P" 	g2="Z" 	k="26" />
<hkern g1="P" 	g2="c,d,e,g,q,ccedilla,egrave,eacute,ecircumflex,edieresis,oe" 	k="13" />
<hkern g1="P" 	g2="a,agrave,aacute,acircumflex,atilde,adieresis,aring" 	k="11" />
<hkern g1="J,U,Ugrave,Uacute,Ucircumflex,Udieresis" 	g2="A,Agrave,Aacute,Acircumflex,Atilde,Adieresis,Aring" 	k="22" />
<hkern g1="V" 	g2="v,y,yacute,ydieresis" 	k="11" />
<hkern g1="V" 	g2="C,G,O,Q,Ccedilla,Ograve,Oacute,Ocircumflex,Otilde,Odieresis,Oslash,OE" 	k="13" />
<hkern g1="V" 	g2="o,ograve,oacute,ocircumflex,otilde,odieresis" 	k="46" />
<hkern g1="V" 	g2="u,ugrave,uacute,ucircumflex,udieresis" 	k="28" />
<hkern g1="V" 	g2="A,Agrave,Aacute,Acircumflex,Atilde,Adieresis,Aring" 	k="75" />
<hkern g1="V" 	g2="comma,period,colon,quotesinglbase,quotedblbase,ellipsis" 	k="225" />
<hkern g1="V" 	g2="c,d,e,g,q,ccedilla,egrave,eacute,ecircumflex,edieresis,oe" 	k="44" />
<hkern g1="V" 	g2="hyphen,uni00AD,endash,emdash" 	k="37" />
<hkern g1="V" 	g2="a,agrave,aacute,acircumflex,atilde,adieresis,aring" 	k="46" />
<hkern g1="X" 	g2="v,y,yacute,ydieresis" 	k="31" />
<hkern g1="X" 	g2="C,G,O,Q,Ccedilla,Ograve,Oacute,Ocircumflex,Otilde,Odieresis,Oslash,OE" 	k="25" />
<hkern g1="X" 	g2="o,ograve,oacute,ocircumflex,otilde,odieresis" 	k="21" />
<hkern g1="X" 	g2="u,ugrave,uacute,ucircumflex,udieresis" 	k="21" />
<hkern g1="X" 	g2="V" 	k="-14" />
<hkern g1="X" 	g2="c,d,e,g,q,ccedilla,egrave,eacute,ecircumflex,edieresis,oe" 	k="26" />
<hkern g1="X" 	g2="hyphen,uni00AD,endash,emdash" 	k="46" />
<hkern g1="Y,Yacute,Ydieresis" 	g2="v,y,yacute,ydieresis" 	k="20" />
<hkern g1="Y,Yacute,Ydieresis" 	g2="C,G,O,Q,Ccedilla,Ograve,Oacute,Ocircumflex,Otilde,Odieresis,Oslash,OE" 	k="29" />
<hkern g1="Y,Yacute,Ydieresis" 	g2="U,Ugrave,Uacute,Ucircumflex,Udieresis" 	k="96" />
<hkern g1="Y,Yacute,Ydieresis" 	g2="o,ograve,oacute,ocircumflex,otilde,odieresis" 	k="65" />
<hkern g1="Y,Yacute,Ydieresis" 	g2="W" 	k="-17" />
<hkern g1="Y,Yacute,Ydieresis" 	g2="T" 	k="-17" />
<hkern g1="Y,Yacute,Ydieresis" 	g2="u,ugrave,uacute,ucircumflex,udieresis" 	k="39" />
<hkern g1="Y,Yacute,Ydieresis" 	g2="z" 	k="30" />
<hkern g1="Y,Yacute,Ydieresis" 	g2="V" 	k="-18" />
<hkern g1="Y,Yacute,Ydieresis" 	g2="Y,Yacute,Ydieresis" 	k="-18" />
<hkern g1="Y,Yacute,Ydieresis" 	g2="A,Agrave,Aacute,Acircumflex,Atilde,Adieresis,Aring" 	k="82" />
<hkern g1="Y,Yacute,Ydieresis" 	g2="X" 	k="-13" />
<hkern g1="Y,Yacute,Ydieresis" 	g2="comma,period,colon,quotesinglbase,quotedblbase,ellipsis" 	k="211" />
<hkern g1="Y,Yacute,Ydieresis" 	g2="c,d,e,g,q,ccedilla,egrave,eacute,ecircumflex,edieresis,oe" 	k="65" />
<hkern g1="Y,Yacute,Ydieresis" 	g2="x" 	k="23" />
<hkern g1="Y,Yacute,Ydieresis" 	g2="hyphen,uni00AD,endash,emdash" 	k="52" />
<hkern g1="Y,Yacute,Ydieresis" 	g2="m,n,p,ntilde" 	k="40" />
<hkern g1="Y,Yacute,Ydieresis" 	g2="S" 	k="16" />
<hkern g1="Y,Yacute,Ydieresis" 	g2="a,agrave,aacute,acircumflex,atilde,adieresis,aring" 	k="73" />
<hkern g1="Y,Yacute,Ydieresis" 	g2="s" 	k="58" />
<hkern g1="Y,Yacute,Ydieresis" 	g2="J" 	k="96" />
<hkern g1="W" 	g2="o,ograve,oacute,ocircumflex,otilde,odieresis" 	k="31" />
<hkern g1="W" 	g2="T" 	k="-14" />
<hkern g1="W" 	g2="u,ugrave,uacute,ucircumflex,udieresis" 	k="19" />
<hkern g1="W" 	g2="A,Agrave,Aacute,Acircumflex,Atilde,Adieresis,Aring" 	k="43" />
<hkern g1="W" 	g2="comma,period,colon,quotesinglbase,quotedblbase,ellipsis" 	k="123" />
<hkern g1="W" 	g2="c,d,e,g,q,ccedilla,egrave,eacute,ecircumflex,edieresis,oe" 	k="31" />
<hkern g1="W" 	g2="hyphen,uni00AD,endash,emdash" 	k="60" />
<hkern g1="W" 	g2="a,agrave,aacute,acircumflex,atilde,adieresis,aring" 	k="33" />
<hkern g1="Z" 	g2="v,y,yacute,ydieresis" 	k="27" />
<hkern g1="Z" 	g2="C,G,O,Q,Ccedilla,Ograve,Oacute,Ocircumflex,Otilde,Odieresis,Oslash,OE" 	k="26" />
<hkern g1="Z" 	g2="o,ograve,oacute,ocircumflex,otilde,odieresis" 	k="21" />
<hkern g1="Z" 	g2="u,ugrave,uacute,ucircumflex,udieresis" 	k="19" />
<hkern g1="Z" 	g2="A,Agrave,Aacute,Acircumflex,Atilde,Adieresis,Aring" 	k="-13" />
<hkern g1="Z" 	g2="c,d,e,g,q,ccedilla,egrave,eacute,ecircumflex,edieresis,oe" 	k="21" />
<hkern g1="a,agrave,aacute,acircumflex,atilde,adieresis,aring" 	g2="v,y,yacute,ydieresis" 	k="15" />
<hkern g1="a,agrave,aacute,acircumflex,atilde,adieresis,aring" 	g2="quotedbl,quotesingle,quoteleft,quoteright,quotedblleft,quotedblright" 	k="67" />
<hkern g1="c,ccedilla" 	g2="quotedbl,quotesingle,quoteleft,quoteright,quotedblleft,quotedblright" 	k="11" />
<hkern g1="b,p,thorn" 	g2="v,y,yacute,ydieresis" 	k="11" />
<hkern g1="b,p,thorn" 	g2="quotedbl,quotesingle,quoteleft,quoteright,quotedblleft,quotedblright" 	k="29" />
<hkern g1="b,p,thorn" 	g2="z" 	k="15" />
<hkern g1="b,p,thorn" 	g2="x" 	k="15" />
<hkern g1="e,egrave,eacute,ecircumflex,edieresis" 	g2="v,y,yacute,ydieresis" 	k="13" />
<hkern g1="e,egrave,eacute,ecircumflex,edieresis" 	g2="quotedbl,quotesingle,quoteleft,quoteright,quotedblleft,quotedblright" 	k="14" />
<hkern g1="h,m,n,ntilde" 	g2="quotedbl,quotesingle,quoteleft,quoteright,quotedblleft,quotedblright" 	k="16" />
<hkern g1="o,ograve,oacute,ocircumflex,otilde,odieresis" 	g2="v,y,yacute,ydieresis" 	k="15" />
<hkern g1="o,ograve,oacute,ocircumflex,otilde,odieresis" 	g2="quotedbl,quotesingle,quoteleft,quoteright,quotedblleft,quotedblright" 	k="20" />
<hkern g1="o,ograve,oacute,ocircumflex,otilde,odieresis" 	g2="z" 	k="16" />
<hkern g1="o,ograve,oacute,ocircumflex,otilde,odieresis" 	g2="x" 	k="21" />
<hkern g1="v,y,yacute,ydieresis" 	g2="quotedbl,quotesingle,quoteleft,quoteright,quotedblleft,quotedblright" 	k="-15" />
<hkern g1="v,y,yacute,ydieresis" 	g2="o,ograve,oacute,ocircumflex,otilde,odieresis" 	k="15" />
<hkern g1="v,y,yacute,ydieresis" 	g2="comma,period,colon,quotesinglbase,quotedblbase,ellipsis" 	k="107" />
<hkern g1="v,y,yacute,ydieresis" 	g2="c,d,e,g,q,ccedilla,egrave,eacute,ecircumflex,edieresis,oe" 	k="13" />
<hkern g1="v,y,yacute,ydieresis" 	g2="a,agrave,aacute,acircumflex,atilde,adieresis,aring" 	k="15" />
<hkern g1="r" 	g2="v,y,yacute,ydieresis" 	k="-18" />
<hkern g1="r" 	g2="quotedbl,quotesingle,quoteleft,quoteright,quotedblleft,quotedblright" 	k="-16" />
<hkern g1="r" 	g2="o,ograve,oacute,ocircumflex,otilde,odieresis" 	k="20" />
<hkern g1="r" 	g2="comma,period,colon,quotesinglbase,quotedblbase,ellipsis" 	k="123" />
<hkern g1="r" 	g2="c,d,e,g,q,ccedilla,egrave,eacute,ecircumflex,edieresis,oe" 	k="19" />
<hkern g1="x" 	g2="o,ograve,oacute,ocircumflex,otilde,odieresis" 	k="20" />
<hkern g1="x" 	g2="c,d,e,g,q,ccedilla,egrave,eacute,ecircumflex,edieresis,oe" 	k="20" />
<hkern g1="z" 	g2="o,ograve,oacute,ocircumflex,otilde,odieresis" 	k="16" />
<hkern g1="z" 	g2="c,d,e,g,q,ccedilla,egrave,eacute,ecircumflex,edieresis,oe" 	k="16" />
<hkern g1="quotedbl,quotesingle,quoteleft,quoteright,quotedblleft,quotedblright" 	g2="quotedbl,quotesingle,quoteleft,quoteright,quotedblleft,quotedblright" 	k="107" />
<hkern g1="quotedbl,quotesingle,quoteleft,quoteright,quotedblleft,quotedblright" 	g2="o,ograve,oacute,ocircumflex,otilde,odieresis" 	k="61" />
<hkern g1="quotedbl,quotesingle,quoteleft,quoteright,quotedblleft,quotedblright" 	g2="A,Agrave,Aacute,Acircumflex,Atilde,Adieresis,Aring" 	k="106" />
<hkern g1="quotedbl,quotesingle,quoteleft,quoteright,quotedblleft,quotedblright" 	g2="c,d,e,g,q,ccedilla,egrave,eacute,ecircumflex,edieresis,oe" 	k="59" />
<hkern g1="quotedbl,quotesingle,quoteleft,quoteright,quotedblleft,quotedblright" 	g2="m,n,p,ntilde" 	k="20" />
<hkern g1="quotedbl,quotesingle,quoteleft,quoteright,quotedblleft,quotedblright" 	g2="a,agrave,aacute,acircumflex,atilde,adieresis,aring" 	k="50" />
<hkern g1="quotedbl,quotesingle,quoteleft,quoteright,quotedblleft,quotedblright" 	g2="s" 	k="42" />
</font>
</defs></svg> 